3
500
1.00000e-01 1.75772e+04 2.87964e+04 7.76552e-01
1.02334e-01 1.77325e+04 2.82586e+04 7.74235e-01
1.04723e-01 1.78869e+04 2.77265e+04 7.71874e-01
1.07167e-01 1.80437e+04 2.72015e+04 7.69486e-01
1.09668e-01 1.82004e+04 2.66827e+04 7.67052e-01
1.12228e-01 1.83589e+04 2.61712e+04 7.64588e-01
1.14847e-01 1.85181e+04 2.56663e+04 7.62076e-01
1.17528e-01 1.86788e+04 2.51688e+04 7.59526e-01
1.20271e-01 1.88405e+04 2.46783e+04 7.56929e-01
1.23078e-01 1.90036e+04 2.41954e+04 7.54289e-01
1.25951e-01 1.91681e+04 2.37199e+04 7.51598e-01
1.28890e-01 1.93342e+04 2.32522e+04 7.48861e-01
1.31899e-01 1.95018e+04 2.27923e+04 7.46071e-01
1.34977e-01 1.96711e+04 2.23403e+04 7.43229e-01
1.38128e-01 1.98422e+04 2.18964e+04 7.40334e-01
1.41352e-01 2.00152e+04 2.14608e+04 7.37382e-01
1.44651e-01 2.01902e+04 2.10336e+04 7.34373e-01
1.48027e-01 2.03673e+04 2.06148e+04 7.31305e-01
1.51482e-01 2.05467e+04 2.02048e+04 7.28177e-01
1.55018e-01 2.07285e+04 1.98034e+04 7.24986e-01
1.58636e-01 2.09129e+04 1.94110e+04 7.21731e-01
1.62338e-01 2.10999e+04 1.90276e+04 7.18410e-01
1.66127e-01 2.12898e+04 1.86534e+04 7.15023e-01
1.70005e-01 2.14828e+04 1.82885e+04 7.11567e-01
1.73973e-01 2.16789e+04 1.79330e+04 7.08041e-01
1.78033e-01 2.18785e+04 1.75869e+04 7.04443e-01
1.82189e-01 2.20816e+04 1.72507e+04 7.00773e-01
1.86441e-01 2.22885e+04 1.69242e+04 6.97027e-01
1.90792e-01 2.24996e+04 1.66077e+04 6.93204e-01
1.95246e-01 2.27148e+04 1.63011e+04 6.89303e-01
1.99803e-01 2.29347e+04 1.60048e+04 6.85323e-01
2.04466e-01 2.31593e+04 1.57187e+04 6.81260e-01
2.09238e-01 2.33890e+04 1.54430e+04 6.77113e-01
2.14122e-01 2.36241e+04 1.51778e+04 6.72880e-01
2.19120e-01 2.38649e+04 1.49232e+04 6.68559e-01
2.24234e-01 2.39313e+04 1.47800e+04 6.64036e-01
2.29468e-01 2.39727e+04 1.46518e+04 6.59504e-01
2.34823e-01 2.40195e+04 1.45280e+04 6.54925e-01
2.40304e-01 2.40658e+04 1.44102e+04 6.50300e-01
2.45913e-01 2.40089e+04 1.43270e+04 6.45657e-01
2.51653e-01 2.39613e+04 1.42469e+04 6.40966e-01
2.57526e-01 2.39231e+04 1.41541e+04 6.36331e-01
2.63537e-01 2.38670e+04 1.40695e+04 6.31654e-01
2.69688e-01 2.38023e+04 1.39929e+04 6.26918e-01
2.75983e-01 2.37492e+04 1.39229e+04 6.22109e-01
2.82424e-01 2.36958e+04 1.38596e+04 6.17239e-01
2.89016e-01 2.36240e+04 1.37843e+04 6.12442e-01
2.95762e-01 2.35634e+04 1.37166e+04 6.07557e-01
3.02665e-01 2.34985e+04 1.36602e+04 6.02575e-01
3.09729e-01 2.34211e+04 1.36177e+04 5.97478e-01
3.16958e-01 2.33537e+04 1.35795e+04 5.92295e-01
3.24356e-01 2.32374e+04 1.35302e+04 5.87147e-01
3.31927e-01 2.31106e+04 1.34942e+04 5.81843e-01
3.39674e-01 2.29943e+04 1.34659e+04 5.76403e-01
3.47602e-01 2.28487e+04 1.34473e+04 5.70777e-01
3.55715e-01 2.27066e+04 1.34330e+04 5.65005e-01
3.64017e-01 2.25095e+04 1.33998e+04 5.59211e-01
3.72514e-01 2.23040e+04 1.33736e+04 5.53212e-01
3.81208e-01 2.21018e+04 1.33527e+04 5.47022e-01
3.90106e-01 2.18913e+04 1.33314e+04 5.40634e-01
3.99211e-01 2.16763e+04 1.33117e+04 5.34064e-01
4.08529e-01 2.13969e+04 1.32650e+04 5.27460e-01
4.18064e-01 2.11170e+04 1.32212e+04 5.20649e-01
4.27821e-01 2.08367e+04 1.31725e+04 5.13676e-01
4.37807e-01 2.05548e+04 1.31239e+04 5.06521e-01
4.48025e-01 2.02614e+04 1.30733e+04 4.99203e-01
4.58482e-01 1.99069e+04 1.29942e+04 4.91908e-01
4.69183e-01 1.95516e+04 1.29148e+04 4.84470e-01
4.80134e-01 1.91937e+04 1.28367e+04 4.76900e-01
4.91341e-01 1.88340e+04 1.27600e+04 4.69263e-01
5.02809e-01 1.84677e+04 1.26778e+04 4.61651e-01
5.14544e-01 1.80574e+04 1.25660e+04 4.54317e-01
5.26554e-01 1.76479e+04 1.24571e+04 4.46988e-01
5.38844e-01 1.72395e+04 1.23514e+04 4.39754e-01
5.51421e-01 1.68358e+04 1.22487e+04 4.32683e-01
5.64291e-01 1.64420e+04 1.21378e+04 4.26098e-01
5.77462e-01 1.60116e+04 1.20128e+04 4.19899e-01
5.90940e-01 1.55876e+04 1.18905e+04 4.14013e-01
6.04732e-01 1.51746e+04 1.17661e+04 4.08465e-01
6.18847e-01 1.47794e+04 1.16388e+04 4.03340e-01
6.33291e-01 1.43832e+04 1.15121e+04 3.98492e-01
6.48072e-01 1.39711e+04 1.13720e+04 3.94146e-01
6.63198e-01 1.35864e+04 1.12180e+04 3.90216e-01
6.78677e-01 1.32119e+04 1.10602e+04 3.86323e-01
6.94518e-01 1.28435e+04 1.09009e+04 3.82400e-01
7.10728e-01 1.24919e+04 1.07317e+04 3.78540e-01
7.27316e-01 1.21386e+04 1.05462e+04 3.74727e-01
7.44292e-01 1.17935e+04 1.03631e+04 3.70945e-01
7.61664e-01 1.14711e+04 1.01714e+04 3.67073e-01
7.79442e-01 1.11627e+04 9.97253e+03 3.62957e-01
7.97634e-01 1.08591e+04 9.76732e+03 3.58623e-01
8.16251e-01 1.05765e+04 9.53651e+03 3.54280e-01
8.35302e-01 1.03012e+04 9.30414e+03 3.49846e-01
8.54798e-01 1.00298e+04 9.07374e+03 3.45360e-01
8.74750e-01 9.76393e+03 8.84776e+03 3.40863e-01
8.95167e-01 9.50476e+03 8.62423e+03 3.36274e-01
9.16060e-01 9.26282e+03 8.39339e+03 3.31529e-01
9.37441e-01 9.03067e+03 8.16299e+03 3.26575e-01
9.59321e-01 8.80323e+03 7.93229e+03 3.21430e-01
9.81712e-01 8.57967e+03 7.70132e+03 3.16143e-01
1.00463e+00 8.35830e+03 7.47283e+03 3.10743e-01
1.02807e+00 8.13534e+03 7.25399e+03 3.05240e-01
1.05207e+00 7.91583e+03 7.03869e+03 2.99740e-01
1.07662e+00 7.70066e+03 6.82867e+03 2.94281e-01
1.10175e+00 7.48936e+03 6.62602e+03 2.88863e-01
1.12747e+00 7.26548e+03 6.44498e+03 2.83360e-01
1.15378e+00 7.04678e+03 6.26209e+03 2.77856e-01
1.18071e+00 6.83333e+03 6.08097e+03 2.72308e-01
1.20827e+00 6.61812e+03 5.90509e+03 2.66654e-01
1.23647e+00 6.39256e+03 5.73905e+03 2.60842e-01
1.26533e+00 6.17170e+03 5.57041e+03 2.54945e-01
1.29486e+00 5.95499e+03 5.39651e+03 2.48960e-01
1.32509e+00 5.72758e+03 5.22547e+03 2.42833e-01
1.35602e+00 5.50237e+03 5.05416e+03 2.36649e-01
1.38766e+00 5.28272e+03 4.88318e+03 2.30460e-01
1.42005e+00 5.06140e+03 4.71420e+03 2.24271e-01
1.45320e+00 4.84266e+03 4.54616e+03 2.18147e-01
1.48712e+00 4.63190e+03 4.38176e+03 2.12162e-01
1.52183e+00 4.42473e+03 4.22038e+03 2.06318e-01
1.55734e+00 4.22341e+03 4.06159e+03 2.00636e-01
1.59369e+00 4.03042e+03 3.90437e+03 1.95121e-01
1.63089e+00 3.84145e+03 3.74603e+03 1.89725e-01
1.66896e+00 3.65964e+03 3.58818e+03 1.84450e-01
1.70791e+00 3.48472e+03 3.43032e+03 1.79264e-01
1.74777e+00 3.31452e+03 3.27179e+03 1.74125e-01
1.78857e+00 3.15149e+03 3.11225e+03 1.69008e-01
1.83031e+00 2.99472e+03 2.94959e+03 1.63861e-01
1.87303e+00 2.84418e+03 2.78658e+03 1.58658e-01
1.91675e+00 2.69829e+03 2.62497e+03 1.53370e-01
1.96149e+00 2.55633e+03 2.46597e+03 1.47973e-01
2.00727e+00 2.41989e+03 2.31000e+03 1.42457e-01
2.05412e+00 2.28610e+03 2.15644e+03 1.36787e-01
2.10206e+00 2.15900e+03 2.00973e+03 1.31037e-01
2.15112e+00 2.03827e+03 1.87072e+03 1.25250e-01
2.20133e+00 1.92356e+03 1.73964e+03 1.19480e-01
2.25271e+00 1.81311e+03 1.61446e+03 1.13725e-01
2.30529e+00 1.70884e+03 1.49666e+03 1.08092e-01
2.35910e+00 1.61028e+03 1.38640e+03 1.02633e-01
2.41416e+00 1.51852e+03 1.28334e+03 9.73921e-02
2.47050e+00 1.43528e+03 1.18726e+03 9.24073e-02
2.52817e+00 1.35628e+03 1.09730e+03 8.76590e-02
2.58717e+00 1.28154e+03 1.01301e+03 8.31516e-02
2.64756e+00 1.21202e+03 9.33776e+02 7.88767e-02
2.70935e+00 1.14656e+03 8.59740e+02 7.48380e-02
2.77259e+00 1.08467e+03 7.90752e+02 7.10298e-02
2.83730e+00 1.02702e+03 7.26356e+02 6.74388e-02
2.90353e+00 9.73324e+02 6.66232e+02 6.40507e-02
2.97130e+00 9.22578e+02 6.10495e+02 6.08593e-02
3.04065e+00 8.74518e+02 5.58676e+02 5.78435e-02
3.11162e+00 8.29033e+02 5.10661e+02 5.49949e-02
3.18424e+00 7.86175e+02 4.66376e+02 5.23078e-02
3.25856e+00 7.45944e+02 4.25567e+02 4.97702e-02
3.33462e+00 7.07910e+02 3.88065e+02 4.73730e-02
3.41245e+00 6.71946e+02 3.53651e+02 4.51063e-02
3.49210e+00 6.37935e+02 3.22113e+02 4.29612e-02
3.57360e+00 6.05913e+02 2.93280e+02 4.09316e-02
3.65701e+00 5.75817e+02 2.66889e+02 3.90072e-02
3.74237e+00 5.47324e+02 2.42781e+02 3.71816e-02
3.82971e+00 5.20342e+02 2.20780e+02 3.54487e-02
3.91910e+00 4.94787e+02 2.00717e+02 3.38028e-02
4.01057e+00 4.70805e+02 1.82409e+02 3.22371e-02
4.10418e+00 4.48766e+02 1.65602e+02 3.07408e-02
4.19997e+00 4.27845e+02 1.50321e+02 2.93176e-02
4.29800e+00 4.07979e+02 1.36434e+02 2.79636e-02
4.39832e+00 3.89111e+02 1.23819e+02 2.66747e-02
4.50098e+00 3.71411e+02 1.12354e+02 2.54472e-02
4.60603e+00 3.55643e+02 1.01665e+02 2.42567e-02
4.71353e+00 3.40629e+02 9.19924e+01 2.31235e-02
4.82355e+00 3.26329e+02 8.32400e+01 2.20448e-02
4.93613e+00 3.12709e+02 7.53216e+01 2.10177e-02
5.05134e+00 3.00132e+02 6.81317e+01 2.00368e-02
5.16924e+00 2.88809e+02 6.16009e+01 1.90994e-02
5.28989e+00 2.77994e+02 5.56987e+01 1.82066e-02
5.41336e+00 2.67661e+02 5.03643e+01 1.73562e-02
5.53971e+00 2.57621e+02 4.55030e+01 1.65413e-02
5.66901e+00 2.47980e+02 4.10316e+01 1.57553e-02
5.80132e+00 2.39327e+02 3.69997e+01 1.50068e-02
5.93673e+00 2.31013e+02 3.33663e+01 1.42943e-02
6.07529e+00 2.23037e+02 3.00613e+01 1.36119e-02
6.21709e+00 2.15383e+02 2.70626e+01 1.29589e-02
6.36220e+00 2.08372e+02 2.43686e+01 1.23380e-02
6.51069e+00 2.02269e+02 2.19412e+01 1.17460e-02
6.66265e+00 1.97087e+02 1.96455e+01 1.11641e-02
6.81816e+00 1.92093e+02 1.75921e+01 1.06116e-02
6.97730e+00 1.87279e+02 1.57553e+01 1.00872e-02
7.14015e+00 1.83500e+02 1.40407e+01 9.57501e-03
7.30680e+00 1.80412e+02 1.25093e+01 9.08817e-03
7.47735e+00 1.77474e+02 1.11478e+01 8.62712e-03
7.65187e+00 1.78010e+02 9.78293e+00 8.15538e-03
7.83047e+00 1.79884e+02 8.57249e+00 7.70742e-03
8.01323e+00 1.83766e+02 7.50973e+00 7.28390e-03
8.20026e+00 2.08051e+02 6.45641e+00 6.84821e-03
8.39166e+00 3.02834e+02 5.51858e+00 6.41575e-03
8.58752e+00 4.58709e+02 4.80434e+00 6.00014e-03
8.78795e+00 6.68846e+02 4.39840e+00 5.61545e-03
8.99307e+00 9.81215e+02 4.42471e+00 5.25097e-03
9.20297e+00 1.33810e+03 4.90896e+00 4.92352e-03
9.41777e+00 1.65250e+03 5.67975e+00 4.64408e-03
9.63758e+00 1.84503e+03 6.44061e+00 4.41644e-03
9.86252e+00 1.88642e+03 6.93658e+00 4.24765e-03
1.00927e+01 1.78779e+03 7.01629e+00 4.15309e-03
1.03283e+01 1.62895e+03 6.77851e+00 4.10704e-03
1.05693e+01 1.44884e+03 6.41526e+00 4.10468e-03
1.08160e+01 1.24184e+03 5.87602e+00 4.16541e-03
1.10685e+01 1.05644e+03 5.28706e+00 4.22168e-03
1.13268e+01 8.86041e+02 4.73385e+00 4.27072e-03
1.15912e+01 7.15317e+02 4.17989e+00 4.30368e-03
1.18617e+01 5.60048e+02 3.61507e+00 4.24219e-03
1.21386e+01 4.39286e+02 3.05126e+00 4.03846e-03
1.24219e+01 3.49855e+02 2.56201e+00 3.77666e-03
1.27118e+01 3.09675e+02 2.13928e+00 3.48544e-03
1.30085e+01 2.85385e+02 1.77496e+00 3.20969e-03
1.33122e+01 3.10943e+02 1.50632e+00 2.96911e-03
1.36229e+01 3.41107e+02 1.29667e+00 2.76236e-03
1.39408e+01 3.78407e+02 1.14296e+00 2.58727e-03
1.42662e+01 4.11069e+02 1.00838e+00 2.42479e-03
1.45992e+01 4.47107e+02 8.87683e-01 2.26809e-03
1.49399e+01 4.92561e+02 7.76595e-01 2.11129e-03
1.52886e+01 5.93552e+02 7.13377e-01 1.95675e-03
1.56455e+01 7.29403e+02 7.00771e-01 1.81248e-03
1.60106e+01 8.94950e+02 7.42986e-01 1.67645e-03
1.63843e+01 1.03131e+03 8.22795e-01 1.56624e-03
1.67668e+01 1.11678e+03 8.94125e-01 1.47056e-03
1.71581e+01 1.14563e+03 9.38940e-01 1.39009e-03
1.75586e+01 1.12439e+03 9.50010e-01 1.32514e-03
1.79684e+01 1.06498e+03 9.23419e-01 1.27731e-03
1.83878e+01 9.87863e+02 8.68034e-01 1.24405e-03
1.88169e+01 9.16386e+02 8.05711e-01 1.21398e-03
1.92561e+01 8.49886e+02 7.42445e-01 1.18698e-03
1.97056e+01 7.90236e+02 6.81926e-01 1.16080e-03
2.01655e+01 7.38694e+02 6.24246e-01 1.13358e-03
2.06362e+01 6.91975e+02 5.69112e-01 1.10713e-03
2.11178e+01 6.50481e+02 5.19706e-01 1.07956e-03
2.16107e+01 6.19104e+02 4.75828e-01 1.04544e-03
2.21151e+01 5.89400e+02 4.36413e-01 1.01224e-03
2.26313e+01 5.61925e+02 4.02389e-01 9.78786e-04
2.31595e+01 5.35108e+02 3.71252e-01 9.47083e-04
2.37001e+01 5.08441e+02 3.43112e-01 9.17452e-04
2.42532e+01 4.79588e+02 3.16277e-01 8.93301e-04
2.48193e+01 4.48460e+02 2.90779e-01 8.75347e-04
2.53986e+01 4.18969e+02 2.66373e-01 8.59302e-04
2.59914e+01 3.91132e+02 2.43726e-01 8.44514e-04
2.65980e+01 3.64554e+02 2.22589e-01 8.31399e-04
2.72188e+01 3.38691e+02 2.03139e-01 8.20461e-04
2.78541e+01 3.12883e+02 1.85103e-01 8.12756e-04
2.85043e+01 2.89808e+02 1.68657e-01 8.03403e-04
2.91696e+01 2.68135e+02 1.53469e-01 7.94115e-04
2.98504e+01 2.46830e+02 1.39028e-01 7.85770e-04
3.05471e+01 2.28624e+02 1.25714e-01 7.72404e-04
3.12601e+01 2.11896e+02 1.13751e-01 7.57312e-04
3.19897e+01 1.96114e+02 1.03085e-01 7.41857e-04
3.27363e+01 1.83600e+02 9.32996e-02 7.20395e-04
3.35004e+01 1.71755e+02 8.45252e-02 6.99010e-04
3.42823e+01 1.61189e+02 7.65937e-02 6.76294e-04
3.50825e+01 1.52274e+02 6.93648e-02 6.51306e-04
3.59013e+01 1.43764e+02 6.28555e-02 6.26982e-04
3.67392e+01 1.35106e+02 5.71081e-02 6.05328e-04
3.75967e+01 1.26839e+02 5.19304e-02 5.84497e-04
3.84743e+01 1.19468e+02 4.71490e-02 5.62415e-04
3.93723e+01 1.12837e+02 4.27503e-02 5.39513e-04
4.02912e+01 1.06941e+02 3.88012e-02 5.17157e-04
4.12316e+01 1.02184e+02 3.52727e-02 4.95161e-04
4.21940e+01 9.76261e+01 3.20701e-02 4.74054e-04
4.31788e+01 9.32591e+01 2.91624e-02 4.53804e-04
4.41866e+01 8.90760e+01 2.65223e-02 4.34381e-04
4.52179e+01 8.51556e+01 2.41310e-02 4.15799e-04
4.62733e+01 8.16634e+01 2.19799e-02 3.98154e-04
4.73534e+01 7.83101e+01 2.00222e-02 3.81242e-04
4.84586e+01 7.50901e+01 1.82403e-02 3.65034e-04
4.95896e+01 7.19984e+01 1.66183e-02 3.49501e-04
5.07471e+01 6.83298e+01 1.51353e-02 3.35087e-04
5.19315e+01 6.44643e+01 1.37843e-02 3.21485e-04
5.31436e+01 6.08071e+01 1.25566e-02 3.08401e-04
5.43840e+01 5.73482e+01 1.14406e-02 2.95820e-04
5.56533e+01 5.43794e+01 1.04227e-02 2.83389e-04
5.69523e+01 5.18539e+01 9.49357e-03 2.71157e-04
5.82815e+01 4.94580e+01 8.64777e-03 2.59439e-04
5.96418e+01 4.71700e+01 7.87798e-03 2.48216e-04
6.10339e+01 4.48091e+01 7.17388e-03 2.37442e-04
6.24584e+01 4.25046e+01 6.53236e-03 2.27113e-04
6.39162e+01 4.03249e+01 5.94906e-03 2.17223e-04
6.54081e+01 3.83424e+01 5.41871e-03 2.07715e-04
6.69347e+01 3.66630e+01 4.93633e-03 1.98518e-04
6.84970e+01 3.50559e+01 4.49713e-03 1.89722e-04
7.00957e+01 3.35187e+01 4.09715e-03 1.81310e-04
7.17318e+01 3.20536e+01 3.73218e-03 1.73224e-04
7.34060e+01 3.06507e+01 3.39979e-03 1.65493e-04
7.51193e+01 2.93092e+01 3.09713e-03 1.58103e-04
7.68726e+01 2.80367e+01 2.82158e-03 1.51040e-04
7.86668e+01 2.68189e+01 2.57065e-03 1.44288e-04
8.05029e+01 2.56483e+01 2.34210e-03 1.37837e-04
8.23819e+01 2.45171e+01 2.13391e-03 1.31672e-04
8.43047e+01 2.34353e+01 1.94430e-03 1.25781e-04
8.62724e+01 2.24008e+01 1.77160e-03 1.20151e-04
8.82860e+01 2.14115e+01 1.61429e-03 1.14772e-04
9.03466e+01 2.04694e+01 1.47099e-03 1.09632e-04
9.24553e+01 1.95713e+01 1.34046e-03 1.04720e-04
9.46132e+01 1.87124e+01 1.22154e-03 1.00026e-04
9.68215e+01 1.78910e+01 1.11320e-03 9.55425e-05
9.90814e+01 1.71056e+01 1.01450e-03 9.12585e-05
1.01394e+02 1.63530e+01 9.24572e-04 8.71652e-05
1.03760e+02 1.56326e+01 8.42640e-04 8.32543e-05
1.06182e+02 1.49437e+01 7.67984e-04 7.95182e-05
1.08661e+02 1.42849e+01 6.99958e-04 7.59489e-05
1.11197e+02 1.36552e+01 6.37971e-04 7.25391e-05
1.13792e+02 1.30585e+01 5.81485e-04 6.92816e-05
1.16448e+02 1.24915e+01 5.30010e-04 6.61699e-05
1.19166e+02 1.19490e+01 4.83100e-04 6.31974e-05
1.21947e+02 1.14302e+01 4.40349e-04 6.03579e-05
1.24794e+02 1.09341e+01 4.01389e-04 5.76456e-05
1.27706e+02 1.04575e+01 3.65880e-04 5.50547e-05
1.30687e+02 1.00005e+01 3.33519e-04 5.25800e-05
1.33737e+02 9.56362e+00 3.04024e-04 5.02160e-05
1.36859e+02 9.14576e+00 2.77141e-04 4.79581e-05
1.40053e+02 8.74617e+00 2.52638e-04 4.58015e-05
1.43322e+02 8.36403e+00 2.30305e-04 4.37415e-05
1.46667e+02 7.99845e+00 2.09948e-04 4.17740e-05
1.50090e+02 7.64889e+00 1.91393e-04 3.98946e-05
1.53593e+02 7.31464e+00 1.74479e-04 3.80997e-05
1.57178e+02 6.99504e+00 1.59062e-04 3.63854e-05
1.60847e+02 6.68972e+00 1.45009e-04 3.47480e-05
1.64601e+02 6.39836e+00 1.32198e-04 3.31842e-05
1.68443e+02 6.11973e+00 1.20520e-04 3.16906e-05
1.72374e+02 5.85331e+00 1.09875e-04 3.02641e-05
1.76398e+02 5.59854e+00 1.00172e-04 2.89017e-05
1.80515e+02 5.35492e+00 9.13252e-05 2.76006e-05
1.84728e+02 5.12122e+00 8.32607e-05 2.63579e-05
1.89040e+02 4.89760e+00 7.59090e-05 2.51711e-05
1.93452e+02 4.68378e+00 6.92068e-05 2.40376e-05
1.97967e+02 4.47935e+00 6.30968e-05 2.29551e-05
2.02588e+02 4.28392e+00 5.75266e-05 2.19213e-05
2.07316e+02 4.09715e+00 5.24484e-05 2.09340e-05
2.12155e+02 3.91855e+00 4.78189e-05 1.99912e-05
2.17107e+02 3.74779e+00 4.35982e-05 1.90906e-05
2.22174e+02 3.58450e+00 3.97502e-05 1.82307e-05
2.27360e+02 3.42895e+00 3.62420e-05 1.74094e-05
2.32666e+02 3.28024e+00 3.30437e-05 1.66252e-05
2.38097e+02 3.13801e+00 3.01277e-05 1.58761e-05
2.43654e+02 3.00201e+00 2.74691e-05 1.51608e-05
2.49341e+02 2.87195e+00 2.50453e-05 1.44778e-05
2.55161e+02 2.74756e+00 2.28354e-05 1.38254e-05
2.61116e+02 2.62817e+00 2.08206e-05 1.32025e-05
2.67211e+02 2.51364e+00 1.89836e-05 1.26075e-05
2.73447e+02 2.40413e+00 1.73088e-05 1.20394e-05
2.79830e+02 2.29942e+00 1.57818e-05 1.14968e-05
2.86361e+02 2.19929e+00 1.43895e-05 1.09787e-05
2.93045e+02 2.10391e+00 1.31201e-05 1.04840e-05
2.99884e+02 2.01374e+00 1.19627e-05 1.00115e-05
3.06884e+02 1.92750e+00 1.09075e-05 9.56026e-06
3.14047e+02 1.84501e+00 9.94539e-06 9.12939e-06
3.21376e+02 1.76609e+00 9.06812e-06 8.71789e-06
3.28877e+02 1.69046e+00 8.26827e-06 8.32495e-06
3.36553e+02 1.61803e+00 7.53899e-06 7.94972e-06
3.44409e+02 1.54874e+00 6.87405e-06 7.59139e-06
3.52447e+02 1.48246e+00 6.26777e-06 7.24920e-06
3.60673e+02 1.41932e+00 5.71498e-06 6.92243e-06
3.69092e+02 1.35928e+00 5.21094e-06 6.61039e-06
3.77706e+02 1.30183e+00 4.75137e-06 6.31239e-06
3.86522e+02 1.24686e+00 4.33235e-06 6.02783e-06
3.95544e+02 1.19427e+00 3.95028e-06 5.75611e-06
4.04776e+02 1.14394e+00 3.60191e-06 5.49661e-06
4.14223e+02 1.09578e+00 3.28427e-06 5.24882e-06
4.23891e+02 1.04969e+00 2.99464e-06 5.01219e-06
4.33785e+02 1.00557e+00 2.73056e-06 4.78623e-06
4.43910e+02 9.63358e-01 2.48977e-06 4.57045e-06
4.54271e+02 9.22959e-01 2.27022e-06 4.36440e-06
4.64873e+02 8.84291e-01 2.07003e-06 4.16763e-06
4.75724e+02 8.47282e-01 1.88750e-06 3.97974e-06
4.86827e+02 8.11858e-01 1.72105e-06 3.80031e-06
4.98190e+02 7.77951e-01 1.56930e-06 3.62897e-06
5.09818e+02 7.45495e-01 1.43092e-06 3.46535e-06
5.21717e+02 7.14427e-01 1.30475e-06 3.30911e-06
5.33894e+02 6.84687e-01 1.18970e-06 3.15991e-06
5.46355e+02 6.56215e-01 1.08480e-06 3.01744e-06
5.59107e+02 6.28958e-01 9.89149e-07 2.88139e-06
5.72157e+02 6.02863e-01 9.01932e-07 2.75147e-06
5.85511e+02 5.77879e-01 8.22407e-07 2.62742e-06
5.99177e+02 5.53959e-01 7.49893e-07 2.50895e-06
6.13162e+02 5.31056e-01 6.83775e-07 2.39582e-06
6.27473e+02 5.09125e-01 6.23486e-07 2.28780e-06
6.42119e+02 4.88125e-01 5.68513e-07 2.18464e-06
6.57106e+02 4.68016e-01 5.18388e-07 2.08614e-06
6.72443e+02 4.48759e-01 4.72682e-07 1.99207e-06
6.88138e+02 4.30317e-01 4.31007e-07 1.90225e-06
7.04199e+02 4.12654e-01 3.93006e-07 1.81648e-06
7.20635e+02 3.95739e-01 3.58356e-07 1.73457e-06
7.37455e+02 3.79537e-01 3.26761e-07 1.65635e-06
7.54667e+02 3.64019e-01 2.97951e-07 1.58167e-06
7.72281e+02 3.49154e-01 2.71682e-07 1.51035e-06
7.90307e+02 3.34916e-01 2.47729e-07 1.44224e-06
8.08753e+02 3.21275e-01 2.25888e-07 1.37722e-06
8.27629e+02 3.08209e-01 2.05972e-07 1.31511e-06
8.46946e+02 2.95690e-01 1.87813e-07 1.25581e-06
8.66714e+02 2.83697e-01 1.71254e-07 1.19918e-06
8.86943e+02 2.72205e-01 1.56156e-07 1.14511e-06
9.07645e+02 2.61194e-01 1.42389e-07 1.09348e-06
9.28829e+02 2.50644e-01 1.29835e-07 1.04417e-06
9.50508e+02 2.40534e-01 1.18388e-07 9.97077e-07
9.72693e+02 2.30846e-01 1.07951e-07 9.52118e-07
9.95396e+02 2.21560e-01 9.84338e-08 9.09183e-07
1.01863e+03 2.12663e-01 8.97556e-08 8.68187e-07
1.04240e+03 2.04134e-01 8.18426e-08 8.29038e-07
1.06673e+03 1.95960e-01 7.46271e-08 7.91653e-07
1.09163e+03 1.88124e-01 6.80478e-08 7.55955e-07
1.11711e+03 1.80613e-01 6.20487e-08 7.21866e-07
1.14318e+03 1.73414e-01 5.65783e-08 6.89315e-07
1.16987e+03 1.66511e-01 5.15904e-08 6.58232e-07
1.19717e+03 1.59894e-01 4.70420e-08 6.28549e-07
1.22511e+03 1.53549e-01 4.28948e-08 6.00205e-07
1.25371e+03 1.47465e-01 3.91132e-08 5.73139e-07
1.28297e+03 1.41632e-01 3.56649e-08 5.47294e-07
1.31291e+03 1.36038e-01 3.25207e-08 5.22614e-07
1.34356e+03 1.30674e-01 2.96536e-08 4.99047e-07
1.37492e+03 1.25530e-01 2.70394e-08 4.76543e-07
1.40701e+03 1.20596e-01 2.46556e-08 4.55055e-07
1.43985e+03 1.15863e-01 2.24819e-08 4.34534e-07
1.47345e+03 1.11324e-01 2.04999e-08 4.14939e-07
1.50785e+03 1.06970e-01 1.86926e-08 3.96228e-07
1.54304e+03 1.02793e-01 1.70448e-08 3.78359e-07
1.57905e+03 9.87861e-02 1.55421e-08 3.61298e-07
1.61591e+03 9.49417e-02 1.41718e-08 3.45005e-07
1.65362e+03 9.12531e-02 1.29225e-08 3.29448e-07
1.69222e+03 8.77137e-02 1.17833e-08 3.14591e-07
1.73172e+03 8.43175e-02 1.07445e-08 3.00404e-07
1.77214e+03 8.10585e-02 9.79723e-09 2.86858e-07
1.81350e+03 7.79307e-02 8.93352e-09 2.73922e-07
1.85583e+03 7.49289e-02 8.14594e-09 2.61569e-07
1.89914e+03 7.20476e-02 7.42781e-09 2.49774e-07
1.94347e+03 6.92822e-02 6.77298e-09 2.38511e-07
1.98883e+03 6.66274e-02 6.17589e-09 2.27755e-07
2.03525e+03 6.40790e-02 5.63143e-09 2.17484e-07
2.08275e+03 6.16325e-02 5.13497e-09 2.07677e-07
2.13136e+03 5.92835e-02 4.68227e-09 1.98312e-07
2.18111e+03 5.70280e-02 4.26949e-09 1.89369e-07
2.23202e+03 5.48623e-02 3.89310e-09 1.80830e-07
2.28411e+03 5.27825e-02 3.54989e-09 1.72675e-07
2.33742e+03 5.07853e-02 3.23693e-09 1.64888e-07
2.39198e+03 4.88672e-02 2.95157e-09 1.57452e-07
2.44781e+03 4.70248e-02 2.69137e-09 1.50352e-07
2.50494e+03 4.52552e-02 2.45410e-09 1.43572e-07
2.56341e+03 4.35553e-02 2.23775e-09 1.37097e-07
2.62324e+03 4.19222e-02 2.04047e-09 1.30915e-07
2.68446e+03 4.03534e-02 1.86059e-09 1.25011e-07
2.74712e+03 3.88461e-02 1.69657e-09 1.19374e-07
2.81124e+03 3.73977e-02 1.54700e-09 1.13991e-07
2.87685e+03 3.60060e-02 1.41061e-09 1.08850e-07
2.94400e+03 3.46685e-02 1.28626e-09 1.03942e-07
3.01271e+03 3.33832e-02 1.17287e-09 9.92545e-08
3.08303e+03 3.21478e-02 1.06946e-09 9.47784e-08
3.15499e+03 3.09604e-02 9.75186e-10 9.05046e-08
3.22863e+03 2.98190e-02 8.89215e-10 8.64231e-08
3.30399e+03 2.87218e-02 8.10824e-10 8.25259e-08
3.38110e+03 2.76670e-02 7.39344e-10 7.88043e-08
3.46002e+03 2.66528e-02 6.74164e-10 7.52506e-08
3.54077e+03 2.56777e-02 6.14731e-10 7.18572e-08
3.62342e+03 2.47400e-02 5.60538e-10 6.86167e-08
3.70799e+03 2.38383e-02 5.11122e-10 6.55224e-08
3.79453e+03 2.29710e-02 4.66063e-10 6.25676e-08
3.88310e+03 2.21370e-02 4.24975e-10 5.97461e-08
3.97373e+03 2.13348e-02 3.87510e-10 5.70519e-08
4.06648e+03 2.05632e-02 3.53348e-10 5.44791e-08
4.16139e+03 1.98208e-02 3.22198e-10 5.20224e-08
4.25852e+03 1.91066e-02 2.93794e-10 4.96764e-08
4.35791e+03 1.84195e-02 2.67893e-10 4.74362e-08
4.45963e+03 1.77583e-02 2.44276e-10 4.52970e-08
4.56372e+03 1.71222e-02 2.22742e-10 4.32543e-08
4.67023e+03 1.65099e-02 2.03105e-10 4.13038e-08
4.77924e+03 1.59207e-02 1.85200e-10 3.94412e-08
4.89079e+03 1.53536e-02 1.68873e-10 3.76626e-08
5.00494e+03 1.48078e-02 1.53986e-10 3.59642e-08
5.12176e+03 1.42824e-02 1.40411e-10 3.43423e-08
5.24130e+03 1.37765e-02 1.28032e-10 3.27936e-08
5.36363e+03 1.32895e-02 1.16745e-10 3.13148e-08
5.48882e+03 1.28207e-02 1.06453e-10 2.99027e-08
5.61693e+03 1.23692e-02 9.70686e-11 2.85542e-08
5.74803e+03 1.19345e-02 8.85113e-11 2.72665e-08
5.88219e+03 1.15158e-02 8.07084e-11 2.60370e-08
6.01948e+03 1.11126e-02 7.35933e-11 2.48627e-08
6.15998e+03 1.07242e-02 6.71055e-11 2.37415e-08
6.30375e+03 1.03501e-02 6.11896e-11 2.26709e-08
6.45088e+03 9.98971e-03 5.57953e-11 2.16486e-08
6.60145e+03 9.64255e-03 5.08765e-11 2.06723e-08
6.75553e+03 9.30807e-03 4.63913e-11 1.97401e-08
6.91320e+03 8.98580e-03 4.23016e-11 1.88499e-08
7.07456e+03 8.67525e-03 3.85724e-11 1.79998e-08
7.23968e+03 8.37601e-03 3.51719e-11 1.71881e-08
7.40866e+03 8.08761e-03 3.20713e-11 1.64130e-08
7.58158e+03 7.80966e-03 2.92439e-11 1.56729e-08
7.75853e+03 7.54176e-03 2.66658e-11 1.49661e-08
7.93962e+03 7.28350e-03 2.43151e-11 1.42912e-08
8.12493e+03 7.03457e-03 2.21715e-11 1.36467e-08
8.31457e+03 6.79455e-03 2.02169e-11 1.30313e-08
8.50863e+03 6.56317e-03 1.84346e-11 1.24436e-08
8.70722e+03 6.34007e-03 1.68095e-11 1.18825e-08
8.91045e+03 6.12491e-03 1.53276e-11 1.13467e-08
9.11843e+03 5.91743e-03 1.39763e-11 1.08350e-08
9.33125e+03 5.71736e-03 1.27442e-11 1.03464e-08
9.54904e+03 5.52436e-03 1.16208e-11 9.87978e-09
9.77192e+03 5.33823e-03 1.05963e-11 9.43423e-09
1.00000e+04 5.15867e-03 9.66214e-12 9.00882e-09
