3
500
1.00000e-01 4.45555e+02 7.32147e+02 9.37444e-01
1.02334e-01 4.47964e+02 7.19475e+02 9.37145e-01
1.04723e-01 4.50357e+02 7.06983e+02 9.36841e-01
1.07167e-01 4.52732e+02 6.94672e+02 9.36530e-01
1.09668e-01 4.55088e+02 6.82542e+02 9.36212e-01
1.12228e-01 4.57428e+02 6.70595e+02 9.35887e-01
1.14847e-01 4.59750e+02 6.58832e+02 9.35555e-01
1.17528e-01 4.62054e+02 6.47254e+02 9.35214e-01
1.20271e-01 4.64342e+02 6.35862e+02 9.34865e-01
1.23078e-01 4.66614e+02 6.24656e+02 9.34506e-01
1.25951e-01 4.68870e+02 6.13637e+02 9.34138e-01
1.28890e-01 4.71111e+02 6.02807e+02 9.33758e-01
1.31899e-01 4.73337e+02 5.92166e+02 9.33367e-01
1.34977e-01 4.75550e+02 5.81716e+02 9.32964e-01
1.38128e-01 4.77750e+02 5.71456e+02 9.32548e-01
1.41352e-01 4.79939e+02 5.61389e+02 9.32117e-01
1.44651e-01 4.82117e+02 5.51514e+02 9.31672e-01
1.48027e-01 4.84286e+02 5.41834e+02 9.31210e-01
1.51482e-01 4.86447e+02 5.32347e+02 9.30731e-01
1.55018e-01 4.88602e+02 5.23057e+02 9.30234e-01
1.58636e-01 4.90751e+02 5.13962e+02 9.29717e-01
1.62338e-01 4.92898e+02 5.05065e+02 9.29179e-01
1.66127e-01 4.95042e+02 4.96366e+02 9.28618e-01
1.70005e-01 4.97187e+02 4.87866e+02 9.28033e-01
1.73973e-01 4.99333e+02 4.79566e+02 9.27423e-01
1.78033e-01 5.01484e+02 4.71467e+02 9.26784e-01
1.82189e-01 5.03640e+02 4.63570e+02 9.26117e-01
1.86441e-01 5.05804e+02 4.55876e+02 9.25417e-01
1.90792e-01 5.07979e+02 4.48385e+02 9.24684e-01
1.95246e-01 5.10165e+02 4.41100e+02 9.23915e-01
1.99803e-01 5.12366e+02 4.34021e+02 9.23107e-01
2.04466e-01 5.14583e+02 4.27149e+02 9.22258e-01
2.09238e-01 5.16819e+02 4.20485e+02 9.21365e-01
2.14122e-01 5.19076e+02 4.14031e+02 9.20425e-01
2.19120e-01 5.21356e+02 4.07788e+02 9.19435e-01
2.24234e-01 5.18791e+02 4.04495e+02 9.18435e-01
2.29468e-01 5.15203e+02 4.01793e+02 9.17436e-01
2.34823e-01 5.11615e+02 3.99088e+02 9.16432e-01
2.40304e-01 5.07856e+02 3.96426e+02 9.15442e-01
2.45913e-01 5.01186e+02 3.94542e+02 9.14758e-01
2.51653e-01 4.94588e+02 3.92666e+02 9.14063e-01
2.57526e-01 4.88063e+02 3.90795e+02 9.13358e-01
2.63537e-01 4.80894e+02 3.88976e+02 9.12775e-01
2.69688e-01 4.73322e+02 3.87211e+02 9.12269e-01
2.75983e-01 4.65859e+02 3.85468e+02 9.11748e-01
2.82424e-01 4.58215e+02 3.83818e+02 9.11248e-01
2.89016e-01 4.50212e+02 3.82315e+02 9.10790e-01
2.95762e-01 4.42342e+02 3.80839e+02 9.10312e-01
3.02665e-01 4.34188e+02 3.79493e+02 9.09870e-01
3.09729e-01 4.25523e+02 3.78353e+02 9.09492e-01
3.16958e-01 4.17026e+02 3.77249e+02 9.09087e-01
3.24356e-01 4.07907e+02 3.76378e+02 9.08769e-01
3.31927e-01 3.98438e+02 3.75696e+02 9.08496e-01
3.39674e-01 3.89178e+02 3.75060e+02 9.08188e-01
3.47602e-01 3.79081e+02 3.74507e+02 9.08100e-01
3.55715e-01 3.69180e+02 3.74009e+02 9.07983e-01
3.64017e-01 3.59174e+02 3.73546e+02 9.07924e-01
3.72514e-01 3.49051e+02 3.73121e+02 9.07928e-01
3.81208e-01 3.39125e+02 3.72707e+02 9.07921e-01
3.90106e-01 3.29115e+02 3.72144e+02 9.08046e-01
3.99211e-01 3.19355e+02 3.71613e+02 9.08137e-01
4.08529e-01 3.09804e+02 3.70894e+02 9.08292e-01
4.18064e-01 3.00486e+02 3.70173e+02 9.08427e-01
4.27821e-01 2.91427e+02 3.69245e+02 9.08617e-01
4.37807e-01 2.82598e+02 3.68269e+02 9.08803e-01
4.48025e-01 2.73987e+02 3.67294e+02 9.08966e-01
4.58482e-01 2.65795e+02 3.66091e+02 9.09139e-01
4.69183e-01 2.57850e+02 3.64830e+02 9.09300e-01
4.80134e-01 2.50100e+02 3.63560e+02 9.09444e-01
4.91341e-01 2.42539e+02 3.62278e+02 9.09571e-01
5.02809e-01 2.35283e+02 3.60866e+02 9.09695e-01
5.14544e-01 2.28562e+02 3.59082e+02 9.09844e-01
5.26554e-01 2.22000e+02 3.57288e+02 9.09981e-01
5.38844e-01 2.15595e+02 3.55481e+02 9.10106e-01
5.51421e-01 2.09402e+02 3.53623e+02 9.10217e-01
5.64291e-01 2.03807e+02 3.51464e+02 9.10297e-01
5.77462e-01 1.98338e+02 3.49299e+02 9.10368e-01
5.90940e-01 1.92994e+02 3.47127e+02 9.10431e-01
6.04732e-01 1.87961e+02 3.44821e+02 9.10480e-01
6.18847e-01 1.83396e+02 3.42268e+02 9.10512e-01
6.33291e-01 1.78927e+02 3.39719e+02 9.10537e-01
6.48072e-01 1.74553e+02 3.37175e+02 9.10556e-01
6.63198e-01 1.70830e+02 3.34163e+02 9.10593e-01
6.78677e-01 1.67260e+02 3.31102e+02 9.10629e-01
6.94518e-01 1.63757e+02 3.28060e+02 9.10661e-01
7.10728e-01 1.60768e+02 3.24753e+02 9.10663e-01
7.27316e-01 1.58058e+02 3.21331e+02 9.10650e-01
7.44292e-01 1.55391e+02 3.17942e+02 9.10633e-01
7.61664e-01 1.53209e+02 3.14251e+02 9.10616e-01
7.79442e-01 1.51273e+02 3.10438e+02 9.10597e-01
7.97634e-01 1.49358e+02 3.06669e+02 9.10576e-01
8.16251e-01 1.48271e+02 3.02443e+02 9.10507e-01
8.35302e-01 1.47311e+02 2.98201e+02 9.10430e-01
8.54798e-01 1.46356e+02 2.94014e+02 9.10350e-01
8.74750e-01 1.45405e+02 2.89884e+02 9.10268e-01
8.95167e-01 1.44459e+02 2.85808e+02 9.10185e-01
9.16060e-01 1.44000e+02 2.81599e+02 9.10014e-01
9.37441e-01 1.43687e+02 2.77389e+02 9.09815e-01
9.59321e-01 1.43371e+02 2.73235e+02 9.09613e-01
9.81712e-01 1.43052e+02 2.69137e+02 9.09410e-01
1.00463e+00 1.42699e+02 2.65185e+02 9.09167e-01
1.02807e+00 1.42214e+02 2.61641e+02 9.08772e-01
1.05207e+00 1.41727e+02 2.58139e+02 9.08374e-01
1.07662e+00 1.41240e+02 2.54681e+02 9.07975e-01
1.10175e+00 1.40699e+02 2.51317e+02 9.07565e-01
1.12747e+00 1.39449e+02 2.48695e+02 9.07032e-01
1.15378e+00 1.38208e+02 2.46098e+02 9.06497e-01
1.18071e+00 1.36978e+02 2.43526e+02 9.05959e-01
1.20827e+00 1.35496e+02 2.41202e+02 9.05396e-01
1.23647e+00 1.33418e+02 2.39417e+02 9.04773e-01
1.26533e+00 1.31371e+02 2.37640e+02 9.04146e-01
1.29486e+00 1.29354e+02 2.35873e+02 9.03515e-01
1.32509e+00 1.26721e+02 2.34543e+02 9.02897e-01
1.35602e+00 1.24006e+02 2.33301e+02 9.02276e-01
1.38766e+00 1.21345e+02 2.32055e+02 9.01648e-01
1.42005e+00 1.18377e+02 2.31032e+02 9.01033e-01
1.45320e+00 1.15254e+02 2.30138e+02 9.00420e-01
1.48712e+00 1.12204e+02 2.29230e+02 8.99797e-01
1.52183e+00 1.08989e+02 2.28441e+02 8.99190e-01
1.55734e+00 1.05715e+02 2.27709e+02 8.98587e-01
1.59369e+00 1.02525e+02 2.26955e+02 8.97972e-01
1.63089e+00 9.91834e+01 2.26320e+02 8.97364e-01
1.66896e+00 9.58933e+01 2.25686e+02 8.96743e-01
1.70791e+00 9.26502e+01 2.25051e+02 8.96110e-01
1.74777e+00 8.93202e+01 2.24500e+02 8.95468e-01
1.78857e+00 8.60984e+01 2.23913e+02 8.94809e-01
1.83031e+00 8.29452e+01 2.23273e+02 8.94164e-01
1.87303e+00 7.98706e+01 2.22584e+02 8.93519e-01
1.91675e+00 7.67600e+01 2.21959e+02 8.92847e-01
1.96149e+00 7.35698e+01 2.21458e+02 8.92127e-01
2.00727e+00 7.04366e+01 2.20952e+02 8.91381e-01
2.05412e+00 6.70253e+01 2.20618e+02 8.90638e-01
2.10206e+00 6.37344e+01 2.20206e+02 8.89877e-01
2.15112e+00 6.06007e+01 2.19732e+02 8.89074e-01
2.20133e+00 5.76260e+01 2.19197e+02 8.88221e-01
2.25271e+00 5.45302e+01 2.18677e+02 8.87396e-01
2.30529e+00 5.15363e+01 2.18059e+02 8.86560e-01
2.35910e+00 4.86944e+01 2.17369e+02 8.85675e-01
2.41416e+00 4.62736e+01 2.16440e+02 8.84766e-01
2.47050e+00 4.46291e+01 2.14885e+02 8.84021e-01
2.52817e+00 4.29781e+01 2.13284e+02 8.83306e-01
2.58717e+00 4.13551e+01 2.11666e+02 8.82573e-01
2.64756e+00 4.01089e+01 2.09824e+02 8.81904e-01
2.70935e+00 3.89714e+01 2.07911e+02 8.81241e-01
2.77259e+00 3.78373e+01 2.05961e+02 8.80625e-01
2.83730e+00 3.68334e+01 2.03832e+02 8.80116e-01
2.90353e+00 3.60389e+01 2.01644e+02 8.79605e-01
2.97130e+00 3.52758e+01 1.99520e+02 8.79031e-01
3.04065e+00 3.45083e+01 1.97357e+02 8.78515e-01
3.11162e+00 3.36644e+01 1.95172e+02 8.78063e-01
3.18424e+00 3.28289e+01 1.93001e+02 8.77592e-01
3.25856e+00 3.20944e+01 1.90931e+02 8.77039e-01
3.33462e+00 3.13448e+01 1.88871e+02 8.76445e-01
3.41245e+00 3.06237e+01 1.86777e+02 8.75906e-01
3.49210e+00 2.98527e+01 1.84674e+02 8.75405e-01
3.57360e+00 2.91602e+01 1.82619e+02 8.74836e-01
3.65701e+00 2.85140e+01 1.80662e+02 8.74202e-01
3.74237e+00 2.78737e+01 1.78673e+02 8.73557e-01
3.82971e+00 2.72241e+01 1.76657e+02 8.72972e-01
3.91910e+00 2.65522e+01 1.74636e+02 8.72398e-01
4.01057e+00 2.59932e+01 1.72700e+02 8.71744e-01
4.10418e+00 2.54952e+01 1.70631e+02 8.71235e-01
4.19997e+00 2.50512e+01 1.68532e+02 8.70762e-01
4.29800e+00 2.45656e+01 1.66421e+02 8.70331e-01
4.39832e+00 2.40859e+01 1.64325e+02 8.69886e-01
4.50098e+00 2.36877e+01 1.62341e+02 8.69344e-01
4.60603e+00 2.34515e+01 1.59900e+02 8.69345e-01
4.71353e+00 2.32533e+01 1.57463e+02 8.69354e-01
4.82355e+00 2.30549e+01 1.55036e+02 8.69412e-01
4.93613e+00 2.28356e+01 1.52624e+02 8.69471e-01
5.05134e+00 2.26981e+01 1.50182e+02 8.69603e-01
5.16924e+00 2.26462e+01 1.47698e+02 8.69828e-01
5.28989e+00 2.25471e+01 1.45244e+02 8.70059e-01
5.41336e+00 2.24437e+01 1.42814e+02 8.70262e-01
5.53971e+00 2.22987e+01 1.40401e+02 8.70517e-01
5.66901e+00 2.19726e+01 1.37988e+02 8.70819e-01
5.80132e+00 2.16556e+01 1.35607e+02 8.71090e-01
5.93673e+00 2.13620e+01 1.33269e+02 8.71336e-01
6.07529e+00 2.10640e+01 1.30876e+02 8.71688e-01
6.21709e+00 2.07570e+01 1.28436e+02 8.72138e-01
6.36220e+00 2.04431e+01 1.26025e+02 8.72599e-01
6.51069e+00 2.01375e+01 1.23587e+02 8.73142e-01
6.66265e+00 2.01066e+01 1.20459e+02 8.74619e-01
6.81816e+00 2.00744e+01 1.17372e+02 8.76087e-01
6.97730e+00 2.00407e+01 1.14324e+02 8.77530e-01
7.14015e+00 2.02108e+01 1.10676e+02 8.79766e-01
7.30680e+00 2.03946e+01 1.06958e+02 8.82141e-01
7.47735e+00 2.05615e+01 1.03271e+02 8.84525e-01
7.65187e+00 2.17116e+01 9.72543e+01 8.89929e-01
7.83047e+00 2.31277e+01 9.08961e+01 8.95386e-01
8.01323e+00 2.48757e+01 8.41489e+01 9.01041e-01
8.20026e+00 3.06786e+01 7.20175e+01 9.11234e-01
8.39166e+00 4.48274e+01 5.38223e+01 9.22911e-01
8.58752e+00 5.94875e+01 3.96830e+01 9.28613e-01
8.78795e+00 7.44690e+01 3.32104e+01 9.26988e-01
8.99307e+00 9.37128e+01 3.43651e+01 9.14487e-01
9.20297e+00 1.14244e+02 3.96342e+01 8.93522e-01
9.41777e+00 1.32509e+02 4.56591e+01 8.71090e-01
9.63758e+00 1.45058e+02 5.11951e+01 8.51468e-01
9.86252e+00 1.50427e+02 5.58489e+01 8.35831e-01
1.00927e+01 1.48791e+02 5.93674e+01 8.24791e-01
1.03283e+01 1.43448e+02 6.17979e+01 8.17182e-01
1.05693e+01 1.36403e+02 6.37734e+01 8.10913e-01
1.08160e+01 1.27301e+02 6.49880e+01 8.08041e-01
1.10685e+01 1.18505e+02 6.55667e+01 8.07654e-01
1.13268e+01 1.09916e+02 6.61032e+01 8.08140e-01
1.15912e+01 1.00551e+02 6.66809e+01 8.10818e-01
1.18617e+01 9.07257e+01 6.72054e+01 8.16900e-01
1.21386e+01 8.11199e+01 6.74085e+01 8.26488e-01
1.24219e+01 7.21226e+01 6.76342e+01 8.36089e-01
1.27118e+01 6.64097e+01 6.59837e+01 8.45839e-01
1.30085e+01 6.19452e+01 6.32533e+01 8.55662e-01
1.33122e+01 6.32079e+01 5.81100e+01 8.63275e-01
1.36229e+01 6.50423e+01 5.34397e+01 8.68969e-01
1.39408e+01 6.77601e+01 4.95766e+01 8.71993e-01
1.42662e+01 6.98866e+01 4.62071e+01 8.74651e-01
1.45992e+01 7.20733e+01 4.28581e+01 8.77282e-01
1.49399e+01 7.46462e+01 3.92175e+01 8.80174e-01
1.52886e+01 8.14564e+01 3.63785e+01 8.77980e-01
1.56455e+01 9.06718e+01 3.57142e+01 8.69137e-01
1.60106e+01 1.01859e+02 3.72798e+01 8.53097e-01
1.63843e+01 1.11808e+02 4.05010e+01 8.33526e-01
1.67668e+01 1.18708e+02 4.37280e+01 8.15417e-01
1.71581e+01 1.22170e+02 4.66355e+01 7.99795e-01
1.75586e+01 1.22437e+02 4.90745e+01 7.86836e-01
1.79684e+01 1.20021e+02 5.08074e+01 7.77224e-01
1.83878e+01 1.16080e+02 5.17762e+01 7.70945e-01
1.88169e+01 1.12140e+02 5.23223e+01 7.66138e-01
1.92561e+01 1.08277e+02 5.26135e+01 7.62231e-01
1.97056e+01 1.04671e+02 5.27444e+01 7.58811e-01
2.01655e+01 1.01441e+02 5.26900e+01 7.56050e-01
2.06362e+01 9.84148e+01 5.24709e+01 7.54016e-01
2.11178e+01 9.56580e+01 5.22511e+01 7.51825e-01
2.16107e+01 9.35157e+01 5.19811e+01 7.49583e-01
2.21151e+01 9.14437e+01 5.17526e+01 7.47028e-01
2.26313e+01 8.94894e+01 5.16572e+01 7.43551e-01
2.31595e+01 8.75356e+01 5.15813e+01 7.39861e-01
2.37001e+01 8.55452e+01 5.15632e+01 7.35710e-01
2.42532e+01 8.33460e+01 5.15151e+01 7.31722e-01
2.48193e+01 8.09280e+01 5.14396e+01 7.27880e-01
2.53986e+01 7.85845e+01 5.12489e+01 7.24697e-01
2.59914e+01 7.63226e+01 5.10120e+01 7.21732e-01
2.65980e+01 7.41196e+01 5.07171e+01 7.19122e-01
2.72188e+01 7.19363e+01 5.04048e+01 7.16603e-01
2.78541e+01 6.97277e+01 5.00653e+01 7.14307e-01
2.85043e+01 6.77029e+01 4.96949e+01 7.12187e-01
2.91696e+01 6.57664e+01 4.92843e+01 7.10419e-01
2.98504e+01 6.38467e+01 4.87791e+01 7.09669e-01
3.05471e+01 6.21491e+01 4.82068e+01 7.09633e-01
3.12601e+01 6.05406e+01 4.76533e+01 7.09574e-01
3.19897e+01 5.89810e+01 4.71458e+01 7.09217e-01
3.27363e+01 5.76609e+01 4.65795e+01 7.09440e-01
3.35004e+01 5.63727e+01 4.60457e+01 7.09479e-01
3.42823e+01 5.51684e+01 4.55153e+01 7.09561e-01
3.50825e+01 5.40808e+01 4.49622e+01 7.09910e-01
3.59013e+01 5.30107e+01 4.44327e+01 7.10139e-01
3.67392e+01 5.19196e+01 4.39717e+01 7.09715e-01
3.75967e+01 5.08495e+01 4.35349e+01 7.09104e-01
3.84743e+01 4.98350e+01 4.30722e+01 7.08920e-01
3.93723e+01 4.88632e+01 4.25917e+01 7.09097e-01
4.02912e+01 4.79520e+01 4.21227e+01 7.09059e-01
4.12316e+01 4.71527e+01 4.16512e+01 7.08697e-01
4.21940e+01 4.63655e+01 4.11893e+01 7.08295e-01
4.31788e+01 4.55902e+01 4.07367e+01 7.07853e-01
4.41866e+01 4.48268e+01 4.02930e+01 7.07372e-01
4.52179e+01 4.40853e+01 3.98576e+01 7.06794e-01
4.62733e+01 4.33933e+01 3.94276e+01 7.05962e-01
4.73534e+01 4.27121e+01 3.90039e+01 7.05104e-01
4.84586e+01 4.20415e+01 3.85864e+01 7.04220e-01
4.95896e+01 4.13813e+01 3.81749e+01 7.03311e-01
5.07471e+01 4.06420e+01 3.78049e+01 7.02427e-01
5.19315e+01 3.98675e+01 3.74630e+01 7.01521e-01
5.31436e+01 3.91081e+01 3.71298e+01 7.00558e-01
5.43840e+01 3.83634e+01 3.68047e+01 6.99542e-01
5.56533e+01 3.76738e+01 3.64623e+01 6.98562e-01
5.69523e+01 3.70344e+01 3.61027e+01 6.97630e-01
5.82815e+01 3.64049e+01 3.57490e+01 6.96666e-01
5.96418e+01 3.57851e+01 3.54012e+01 6.95670e-01
6.10339e+01 3.51390e+01 3.50741e+01 6.94737e-01
6.24584e+01 3.44904e+01 3.47589e+01 6.93796e-01
6.39162e+01 3.38518e+01 3.44503e+01 6.92813e-01
6.54081e+01 3.32390e+01 3.41385e+01 6.91792e-01
6.69347e+01 3.26777e+01 3.38068e+01 6.90744e-01
6.84970e+01 3.21245e+01 3.34801e+01 6.89667e-01
7.00957e+01 3.15791e+01 3.31582e+01 6.88563e-01
7.17318e+01 3.10405e+01 3.28397e+01 6.87468e-01
7.34060e+01 3.05095e+01 3.25259e+01 6.86343e-01
7.51193e+01 2.99862e+01 3.22166e+01 6.85188e-01
7.68726e+01 2.94732e+01 3.19100e+01 6.84002e-01
7.86668e+01 2.89674e+01 3.16077e+01 6.82787e-01
8.05029e+01 2.84675e+01 3.13104e+01 6.81542e-01
8.23819e+01 2.79714e+01 3.10193e+01 6.80268e-01
8.43047e+01 2.74823e+01 3.07322e+01 6.78963e-01
8.62724e+01 2.69999e+01 3.04492e+01 6.77626e-01
8.82860e+01 2.65243e+01 3.01701e+01 6.76258e-01
9.03466e+01 2.60552e+01 2.98947e+01 6.74858e-01
9.24553e+01 2.55927e+01 2.96231e+01 6.73426e-01
9.46132e+01 2.51366e+01 2.93551e+01 6.71961e-01
9.68215e+01 2.46869e+01 2.90907e+01 6.70463e-01
9.90814e+01 2.42434e+01 2.88296e+01 6.68932e-01
1.01394e+02 2.38071e+01 2.85712e+01 6.67367e-01
1.03760e+02 2.33776e+01 2.83155e+01 6.65770e-01
1.06182e+02 2.29540e+01 2.80631e+01 6.64137e-01
1.08661e+02 2.25364e+01 2.78137e+01 6.62470e-01
1.11197e+02 2.21245e+01 2.75674e+01 6.60768e-01
1.13792e+02 2.17185e+01 2.73240e+01 6.59030e-01
1.16448e+02 2.13181e+01 2.70835e+01 6.57256e-01
1.19166e+02 2.09233e+01 2.68458e+01 6.55445e-01
1.21947e+02 2.05340e+01 2.66108e+01 6.53597e-01
1.24794e+02 2.01502e+01 2.63785e+01 6.51712e-01
1.27706e+02 1.97718e+01 2.61489e+01 6.49788e-01
1.30687e+02 1.93988e+01 2.59217e+01 6.47825e-01
1.33737e+02 1.90310e+01 2.56970e+01 6.45822e-01
1.36859e+02 1.86684e+01 2.54748e+01 6.43780e-01
1.40053e+02 1.83110e+01 2.52549e+01 6.41697e-01
1.43322e+02 1.79588e+01 2.50372e+01 6.39573e-01
1.46667e+02 1.76115e+01 2.48218e+01 6.37407e-01
1.50090e+02 1.72693e+01 2.46086e+01 6.35198e-01
1.53593e+02 1.69319e+01 2.43975e+01 6.32946e-01
1.57178e+02 1.65995e+01 2.41885e+01 6.30651e-01
1.60847e+02 1.62719e+01 2.39814e+01 6.28311e-01
1.64601e+02 1.59490e+01 2.37763e+01 6.25925e-01
1.68443e+02 1.56309e+01 2.35731e+01 6.23494e-01
1.72374e+02 1.53175e+01 2.33718e+01 6.21016e-01
1.76398e+02 1.50086e+01 2.31723e+01 6.18491e-01
1.80515e+02 1.47044e+01 2.29745e+01 6.15918e-01
1.84728e+02 1.44046e+01 2.27785e+01 6.13296e-01
1.89040e+02 1.41094e+01 2.25842e+01 6.10625e-01
1.93452e+02 1.38185e+01 2.23914e+01 6.07903e-01
1.97967e+02 1.35320e+01 2.22003e+01 6.05129e-01
2.02588e+02 1.32499e+01 2.20107e+01 6.02304e-01
2.07316e+02 1.29721e+01 2.18226e+01 5.99427e-01
2.12155e+02 1.26985e+01 2.16360e+01 5.96495e-01
2.17107e+02 1.24290e+01 2.14508e+01 5.93509e-01
2.22174e+02 1.21637e+01 2.12670e+01 5.90467e-01
2.27360e+02 1.19026e+01 2.10846e+01 5.87369e-01
2.32666e+02 1.16455e+01 2.09036e+01 5.84214e-01
2.38097e+02 1.13924e+01 2.07238e+01 5.81001e-01
2.43654e+02 1.11432e+01 2.05453e+01 5.77728e-01
2.49341e+02 1.08980e+01 2.03680e+01 5.74397e-01
2.55161e+02 1.06568e+01 2.01920e+01 5.71004e-01
2.61116e+02 1.04192e+01 2.00171e+01 5.67548e-01
2.67211e+02 1.01854e+01 1.98434e+01 5.64029e-01
2.73447e+02 9.95552e+00 1.96709e+01 5.60448e-01
2.79830e+02 9.72947e+00 1.94994e+01 5.56804e-01
2.86361e+02 9.50680e+00 1.93290e+01 5.53090e-01
2.93045e+02 9.28760e+00 1.91597e+01 5.49306e-01
2.99884e+02 9.07232e+00 1.89915e+01 5.45463e-01
3.06884e+02 8.86080e+00 1.88243e+01 5.41552e-01
3.14047e+02 8.65236e+00 1.86579e+01 5.37561e-01
3.21376e+02 8.44708e+00 1.84927e+01 5.33503e-01
3.28877e+02 8.24572e+00 1.83286e+01 5.29384e-01
3.36553e+02 8.04812e+00 1.81652e+01 5.25186e-01
3.44409e+02 7.85330e+00 1.80026e+01 5.20914e-01
3.52447e+02 7.66125e+00 1.78412e+01 5.16575e-01
3.60673e+02 7.47311e+00 1.76807e+01 5.12159e-01
3.69092e+02 7.28882e+00 1.75208e+01 5.07668e-01
3.77706e+02 7.10708e+00 1.73619e+01 5.03119e-01
3.86522e+02 6.92762e+00 1.72039e+01 4.98503e-01
3.95544e+02 6.75206e+00 1.70465e+01 4.93793e-01
4.04776e+02 6.58054e+00 1.68899e+01 4.88997e-01
4.14223e+02 6.41144e+00 1.67343e+01 4.84173e-01
4.23891e+02 6.24411e+00 1.65796e+01 4.79334e-01
4.33785e+02 6.08041e+00 1.64252e+01 4.74343e-01
4.43910e+02 5.92107e+00 1.62713e+01 4.69198e-01
4.54271e+02 5.76445e+00 1.61186e+01 4.64176e-01
4.64873e+02 5.60866e+00 1.59669e+01 4.59176e-01
4.75724e+02 5.45609e+00 1.58156e+01 4.53883e-01
4.86827e+02 5.30893e+00 1.56642e+01 4.48560e-01
4.98190e+02 5.16416e+00 1.55134e+01 4.43238e-01
5.09818e+02 5.01930e+00 1.53633e+01 4.37991e-01
5.21717e+02 4.87813e+00 1.52153e+01 4.32715e-01
5.33894e+02 4.74191e+00 1.50679e+01 4.27215e-01
5.46355e+02 4.60929e+00 1.49188e+01 4.21843e-01
5.59107e+02 4.47518e+00 1.47687e+01 4.16223e-01
5.72157e+02 4.34421e+00 1.46216e+01 4.10776e-01
5.85511e+02 4.21920e+00 1.44781e+01 4.05196e-01
5.99177e+02 4.09798e+00 1.43316e+01 3.99922e-01
6.13162e+02 3.97448e+00 1.41852e+01 3.94471e-01
6.27473e+02 3.85378e+00 1.40397e+01 3.89107e-01
6.42119e+02 3.73937e+00 1.38932e+01 3.83052e-01
6.57106e+02 3.62894e+00 1.37471e+01 3.77524e-01
6.72443e+02 3.51633e+00 1.36026e+01 3.72214e-01
6.88138e+02 3.40461e+00 1.34614e+01 3.66962e-01
7.04199e+02 3.30043e+00 1.33220e+01 3.61680e-01
7.20635e+02 3.20056e+00 1.31767e+01 3.55745e-01
7.37455e+02 3.09842e+00 1.30302e+01 3.50817e-01
7.54667e+02 2.99626e+00 1.28841e+01 3.45168e-01
7.72281e+02 2.90154e+00 1.27431e+01 3.39577e-01
7.90307e+02 2.81227e+00 1.25990e+01 3.34123e-01
8.08753e+02 2.71998e+00 1.24606e+01 3.29163e-01
8.27629e+02 2.62551e+00 1.23200e+01 3.24672e-01
8.46946e+02 2.54155e+00 1.21866e+01 3.19732e-01
8.66714e+02 2.45986e+00 1.20432e+01 3.13407e-01
8.86943e+02 2.37735e+00 1.18973e+01 3.08558e-01
9.07645e+02 2.29159e+00 1.17503e+01 3.03781e-01
9.28829e+02 2.21638e+00 1.16086e+01 2.97959e-01
9.50508e+02 2.14429e+00 1.14717e+01 2.92850e-01
9.72693e+02 2.07092e+00 1.13293e+01 2.88737e-01
9.95396e+02 1.99269e+00 1.11922e+01 2.84699e-01
1.01863e+03 1.92514e+00 1.10592e+01 2.80355e-01
1.04240e+03 1.86266e+00 1.09303e+01 2.76335e-01
1.06673e+03 1.79754e+00 1.07948e+01 2.71561e-01
1.09163e+03 1.72350e+00 1.06396e+01 2.66407e-01
1.11711e+03 1.66721e+00 1.05068e+01 2.61660e-01
1.14318e+03 1.60936e+00 1.03715e+01 2.56075e-01
1.16987e+03 1.55347e+00 1.02190e+01 2.50231e-01
1.19717e+03 1.48646e+00 1.00711e+01 2.45887e-01
1.22511e+03 1.43555e+00 9.94247e+00 2.42320e-01
1.25371e+03 1.38418e+00 9.81326e+00 2.38383e-01
1.28297e+03 1.33817e+00 9.68022e+00 2.34215e-01
1.31291e+03 1.27772e+00 9.54662e+00 2.32345e-01
1.34356e+03 1.23327e+00 9.42049e+00 2.30028e-01
1.37492e+03 1.18790e+00 9.29912e+00 2.27608e-01
1.40701e+03 1.15055e+00 9.17253e+00 2.24567e-01
1.43985e+03 1.09271e+00 9.02415e+00 2.20480e-01
1.47345e+03 1.05659e+00 8.88472e+00 2.15560e-01
1.50785e+03 1.01475e+00 8.75658e+00 2.10942e-01
1.54304e+03 9.81691e-01 8.62131e+00 2.06349e-01
1.57905e+03 9.31628e-01 8.46110e+00 2.02148e-01
1.61591e+03 8.96222e-01 8.31361e+00 1.96542e-01
1.65362e+03 8.59094e-01 8.19004e+00 1.90091e-01
1.69222e+03 8.34864e-01 8.07550e+00 1.85204e-01
1.73172e+03 7.87984e-01 7.92990e+00 1.82695e-01
1.77214e+03 7.62088e-01 7.80232e+00 1.81024e-01
1.81350e+03 7.27246e-01 7.67621e+00 1.77744e-01
1.85583e+03 6.99537e-01 7.57430e+00 1.73871e-01
1.89914e+03 6.65932e-01 7.45705e+00 1.73236e-01
1.94347e+03 6.42242e-01 7.34694e+00 1.73183e-01
1.98883e+03 6.12079e-01 7.23667e+00 1.74189e-01
2.03525e+03 5.85480e-01 7.11426e+00 1.73089e-01
2.08275e+03 5.58168e-01 6.97518e+00 1.72167e-01
2.13136e+03 5.46244e-01 6.86851e+00 1.71557e-01
2.18111e+03 5.19813e-01 6.75299e+00 1.68341e-01
2.23202e+03 4.90113e-01 6.60864e+00 1.63336e-01
2.28411e+03 4.62938e-01 6.45287e+00 1.60414e-01
2.33742e+03 4.52319e-01 6.32474e+00 1.58865e-01
2.39198e+03 4.37380e-01 6.20399e+00 1.56311e-01
2.44781e+03 4.14789e-01 6.07815e+00 1.51892e-01
2.50494e+03 3.92533e-01 5.92429e+00 1.47397e-01
2.56341e+03 3.74155e-01 5.77835e+00 1.43280e-01
2.62324e+03 3.51526e-01 5.63274e+00 1.38425e-01
2.68446e+03 3.39364e-01 5.51519e+00 1.31775e-01
2.74712e+03 3.27464e-01 5.38754e+00 1.26529e-01
2.81124e+03 3.11751e-01 5.27730e+00 1.24204e-01
2.87685e+03 2.94643e-01 5.17933e+00 1.22553e-01
2.94400e+03 2.75168e-01 5.08292e+00 1.19651e-01
3.01271e+03 2.48570e-01 4.93051e+00 1.17233e-01
3.08303e+03 2.50141e-01 4.83812e+00 1.14324e-01
3.15499e+03 2.37850e-01 4.74608e+00 1.11919e-01
3.22863e+03 2.15922e-01 4.65334e+00 1.07549e-01
3.30399e+03 2.04732e-01 4.57911e+00 1.03592e-01
3.38110e+03 2.06976e-01 4.52835e+00 1.04253e-01
3.46002e+03 1.97894e-01 4.46920e+00 1.07194e-01
3.54077e+03 1.69667e-01 4.37056e+00 1.07379e-01
3.62342e+03 1.56833e-01 4.27615e+00 1.10616e-01
3.70799e+03 1.44653e-01 4.14836e+00 1.12070e-01
3.79453e+03 1.35722e-01 4.01771e+00 1.12420e-01
3.88310e+03 1.30022e-01 3.91960e+00 1.12466e-01
3.97373e+03 1.23031e-01 3.82545e+00 1.12544e-01
4.06648e+03 1.15514e-01 3.73298e+00 1.12505e-01
4.16139e+03 1.10443e-01 3.66269e+00 1.11997e-01
4.25852e+03 1.06615e-01 3.60560e+00 1.10629e-01
4.35791e+03 1.00271e-01 3.52650e+00 1.08232e-01
4.45963e+03 9.16821e-02 3.41750e+00 1.05216e-01
4.56372e+03 8.12433e-02 3.27600e+00 1.02680e-01
4.67023e+03 6.77302e-02 3.09995e+00 1.01992e-01
4.77924e+03 6.13532e-02 2.96812e+00 1.01206e-01
4.89079e+03 5.69626e-02 2.83781e+00 1.00232e-01
5.00494e+03 5.33780e-02 2.70363e+00 9.93947e-02
5.12176e+03 5.02578e-02 2.56692e+00 9.88264e-02
5.24130e+03 4.74524e-02 2.42964e+00 9.85694e-02
5.36363e+03 4.48745e-02 2.29323e+00 9.86303e-02
5.48882e+03 4.24607e-02 2.15844e+00 9.89978e-02
5.61693e+03 4.01571e-02 2.02529e+00 9.96462e-02
5.74803e+03 3.79124e-02 1.89313e+00 1.00532e-01
5.88219e+03 3.56700e-02 1.76054e+00 1.01581e-01
6.01948e+03 3.33553e-02 1.62503e+00 1.02677e-01
6.15998e+03 3.08572e-02 1.48241e+00 1.03631e-01
6.30375e+03 2.80076e-02 1.32631e+00 1.04170e-01
6.45088e+03 2.45859e-02 1.14921e+00 1.03939e-01
6.60145e+03 2.05069e-02 9.51524e-01 1.02593e-01
6.75553e+03 1.63328e-02 7.60626e-01 9.99564e-02
6.91320e+03 1.29801e-02 6.11511e-01 9.61583e-02
7.07456e+03 1.06179e-02 5.05524e-01 9.15725e-02
7.23968e+03 8.96882e-03 4.28864e-01 8.66242e-02
7.40866e+03 7.77330e-03 3.70559e-01 8.16425e-02
7.58158e+03 6.86679e-03 3.24113e-01 7.68270e-02
7.75853e+03 6.15160e-03 2.85815e-01 7.22757e-02
7.93962e+03 5.56882e-03 2.53461e-01 6.80245e-02
8.12493e+03 5.08158e-03 2.25668e-01 6.40749e-02
8.31457e+03 4.66583e-03 2.01513e-01 6.04124e-02
8.50863e+03 4.30527e-03 1.80344e-01 5.70160e-02
8.70722e+03 3.98848e-03 1.61683e-01 5.38628e-02
8.91045e+03 3.70717e-03 1.45157e-01 5.09306e-02
9.11843e+03 3.45519e-03 1.30475e-01 4.81988e-02
9.33125e+03 3.22783e-03 1.17394e-01 4.56490e-02
9.54904e+03 3.02145e-03 1.05717e-01 4.32646e-02
9.77192e+03 2.83314e-03 9.52740e-02 4.10309e-02
1.00000e+04 2.66056e-03 8.59214e-02 3.89352e-02
