3
500
1.00000e-01 1.79124e+04 3.11880e+04 7.69934e-01
1.02334e-01 1.80300e+04 3.05614e+04 7.68049e-01
1.04723e-01 1.81441e+04 2.99429e+04 7.66112e-01
1.07167e-01 1.82593e+04 2.93339e+04 7.64148e-01
1.09668e-01 1.83721e+04 2.87333e+04 7.62131e-01
1.12228e-01 1.84851e+04 2.81422e+04 7.60082e-01
1.14847e-01 1.85964e+04 2.75597e+04 7.57978e-01
1.17528e-01 1.87074e+04 2.69866e+04 7.55834e-01
1.20271e-01 1.88172e+04 2.64223e+04 7.53635e-01
1.23078e-01 1.89263e+04 2.58673e+04 7.51390e-01
1.25951e-01 1.90346e+04 2.53214e+04 7.49088e-01
1.28890e-01 1.91421e+04 2.47848e+04 7.46734e-01
1.31899e-01 1.92489e+04 2.42574e+04 7.44322e-01
1.34977e-01 1.93551e+04 2.37393e+04 7.41853e-01
1.38128e-01 1.94606e+04 2.32306e+04 7.39324e-01
1.41352e-01 1.95655e+04 2.27313e+04 7.36733e-01
1.44651e-01 1.96699e+04 2.22414e+04 7.34080e-01
1.48027e-01 1.97739e+04 2.17609e+04 7.31361e-01
1.51482e-01 1.98775e+04 2.12900e+04 7.28576e-01
1.55018e-01 1.99808e+04 2.08285e+04 7.25723e-01
1.58636e-01 2.00839e+04 2.03766e+04 7.22800e-01
1.62338e-01 2.01868e+04 1.99343e+04 7.19806e-01
1.66127e-01 2.02897e+04 1.95017e+04 7.16740e-01
1.70005e-01 2.03927e+04 1.90787e+04 7.13599e-01
1.73973e-01 2.04958e+04 1.86654e+04 7.10383e-01
1.78033e-01 2.05992e+04 1.82618e+04 7.07090e-01
1.82189e-01 2.07029e+04 1.78681e+04 7.03719e-01
1.86441e-01 2.08071e+04 1.74841e+04 7.00267e-01
1.90792e-01 2.09120e+04 1.71100e+04 6.96734e-01
1.95246e-01 2.10175e+04 1.67457e+04 6.93117e-01
1.99803e-01 2.11239e+04 1.63914e+04 6.89416e-01
2.04466e-01 2.12312e+04 1.60471e+04 6.85627e-01
2.09238e-01 2.13396e+04 1.57127e+04 6.81749e-01
2.14122e-01 2.14493e+04 1.53883e+04 6.77781e-01
2.19120e-01 2.15602e+04 1.50740e+04 6.73720e-01
2.24234e-01 2.14312e+04 1.49051e+04 6.69409e-01
2.29468e-01 2.12516e+04 1.47653e+04 6.65027e-01
2.34823e-01 2.10718e+04 1.46253e+04 6.60614e-01
2.40304e-01 2.08834e+04 1.44875e+04 6.56171e-01
2.45913e-01 2.05492e+04 1.43899e+04 6.51735e-01
2.51653e-01 2.02185e+04 1.42925e+04 6.47254e-01
2.57526e-01 1.98914e+04 1.41954e+04 6.42726e-01
2.63537e-01 1.95317e+04 1.41016e+04 6.38181e-01
2.69688e-01 1.91514e+04 1.40108e+04 6.33597e-01
2.75983e-01 1.87766e+04 1.39211e+04 6.28953e-01
2.82424e-01 1.83925e+04 1.38360e+04 6.24245e-01
2.89016e-01 1.79903e+04 1.37583e+04 6.19463e-01
2.95762e-01 1.75947e+04 1.36819e+04 6.14607e-01
3.02665e-01 1.71847e+04 1.36122e+04 6.09664e-01
3.09729e-01 1.67490e+04 1.35528e+04 6.04609e-01
3.16958e-01 1.63215e+04 1.34951e+04 5.99455e-01
3.24356e-01 1.58628e+04 1.34494e+04 5.94153e-01
3.31927e-01 1.53862e+04 1.34133e+04 5.88685e-01
3.39674e-01 1.49201e+04 1.33793e+04 5.83079e-01
3.47602e-01 1.44113e+04 1.33507e+04 5.77266e-01
3.55715e-01 1.39122e+04 1.33247e+04 5.71273e-01
3.64017e-01 1.34076e+04 1.33009e+04 5.65070e-01
3.72514e-01 1.28967e+04 1.32793e+04 5.58633e-01
3.81208e-01 1.23956e+04 1.32581e+04 5.51983e-01
3.90106e-01 1.18897e+04 1.32301e+04 5.45108e-01
3.99211e-01 1.13964e+04 1.32028e+04 5.38003e-01
4.08529e-01 1.09134e+04 1.31656e+04 5.30709e-01
4.18064e-01 1.04424e+04 1.31266e+04 5.23177e-01
4.27821e-01 9.98426e+03 1.30758e+04 5.15466e-01
4.37807e-01 9.53802e+03 1.30202e+04 5.07549e-01
4.48025e-01 9.10374e+03 1.29618e+04 4.99429e-01
4.58482e-01 8.69095e+03 1.28899e+04 4.91232e-01
4.69183e-01 8.29104e+03 1.28129e+04 4.82879e-01
4.80134e-01 7.90168e+03 1.27331e+04 4.74384e-01
4.91341e-01 7.52374e+03 1.26511e+04 4.65834e-01
5.02809e-01 7.16272e+03 1.25622e+04 4.57334e-01
5.14544e-01 6.82816e+03 1.24566e+04 4.49124e-01
5.26554e-01 6.50284e+03 1.23506e+04 4.40952e-01
5.38844e-01 6.18663e+03 1.22445e+04 4.32938e-01
5.51421e-01 5.88386e+03 1.21384e+04 4.25171e-01
5.64291e-01 5.61047e+03 1.20220e+04 4.18065e-01
5.77462e-01 5.34539e+03 1.19068e+04 4.11412e-01
5.90940e-01 5.08941e+03 1.17908e+04 4.05205e-01
6.04732e-01 4.84834e+03 1.16675e+04 3.99475e-01
6.18847e-01 4.63110e+03 1.15362e+04 3.94337e-01
6.33291e-01 4.41812e+03 1.14059e+04 3.89580e-01
6.48072e-01 4.21291e+03 1.12758e+04 3.85449e-01
6.63198e-01 4.03962e+03 1.11225e+04 3.81897e-01
6.78677e-01 3.87544e+03 1.09599e+04 3.78418e-01
6.94518e-01 3.71467e+03 1.07912e+04 3.74923e-01
7.10728e-01 3.57533e+03 1.06091e+04 3.71524e-01
7.27316e-01 3.44574e+03 1.04197e+04 3.68158e-01
7.44292e-01 3.32027e+03 1.02295e+04 3.64854e-01
7.61664e-01 3.21857e+03 1.00237e+04 3.61451e-01
7.79442e-01 3.12908e+03 9.80454e+03 3.57742e-01
7.97634e-01 3.04138e+03 9.57673e+03 3.53754e-01
8.16251e-01 2.98398e+03 9.32621e+03 3.49740e-01
8.35302e-01 2.92933e+03 9.07002e+03 3.45626e-01
8.54798e-01 2.87291e+03 8.81307e+03 3.41460e-01
8.74750e-01 2.81721e+03 8.55878e+03 3.37298e-01
8.95167e-01 2.76478e+03 8.30748e+03 3.33025e-01
9.16060e-01 2.73293e+03 8.05504e+03 3.28540e-01
9.37441e-01 2.70756e+03 7.80031e+03 3.23790e-01
9.59321e-01 2.68204e+03 7.54251e+03 3.18800e-01
9.81712e-01 2.65542e+03 7.28187e+03 3.13632e-01
1.00463e+00 2.62607e+03 7.02443e+03 3.08324e-01
1.02807e+00 2.59086e+03 6.78626e+03 3.02885e-01
1.05207e+00 2.55451e+03 6.55076e+03 2.97464e-01
1.07662e+00 2.51831e+03 6.32044e+03 2.92113e-01
1.10175e+00 2.48181e+03 6.09820e+03 2.86830e-01
1.12747e+00 2.42338e+03 5.90497e+03 2.81443e-01
1.15378e+00 2.36748e+03 5.71432e+03 2.76063e-01
1.18071e+00 2.31344e+03 5.52469e+03 2.70630e-01
1.20827e+00 2.25189e+03 5.34087e+03 2.65056e-01
1.23647e+00 2.17141e+03 5.16917e+03 2.59269e-01
1.26533e+00 2.09227e+03 4.99460e+03 2.53365e-01
1.29486e+00 2.01405e+03 4.81740e+03 2.47347e-01
1.32509e+00 1.91687e+03 4.64356e+03 2.41140e-01
1.35602e+00 1.81809e+03 4.46909e+03 2.34858e-01
1.38766e+00 1.72236e+03 4.29492e+03 2.28575e-01
1.42005e+00 1.62027e+03 4.12435e+03 2.22299e-01
1.45320e+00 1.51778e+03 3.95828e+03 2.16124e-01
1.48712e+00 1.42194e+03 3.79702e+03 2.10140e-01
1.52183e+00 1.32680e+03 3.63973e+03 2.04345e-01
1.55734e+00 1.23535e+03 3.48577e+03 1.98762e-01
1.59369e+00 1.15069e+03 3.33457e+03 1.93390e-01
1.63089e+00 1.06686e+03 3.18428e+03 1.88166e-01
1.66896e+00 9.88022e+02 3.03434e+03 1.83072e-01
1.70791e+00 9.13666e+02 2.88412e+03 1.78060e-01
1.74777e+00 8.40854e+02 2.73281e+03 1.73070e-01
1.78857e+00 7.72926e+02 2.58053e+03 1.68068e-01
1.83031e+00 7.08743e+02 2.42553e+03 1.62990e-01
1.87303e+00 6.48511e+02 2.26999e+03 1.57801e-01
1.91675e+00 5.90352e+02 2.11627e+03 1.52467e-01
1.96149e+00 5.33543e+02 1.96597e+03 1.46963e-01
2.00727e+00 4.80375e+02 1.82010e+03 1.41287e-01
2.05412e+00 4.27095e+02 1.67850e+03 1.35405e-01
2.10206e+00 3.79426e+02 1.54554e+03 1.29416e-01
2.15112e+00 3.37011e+02 1.42212e+03 1.23382e-01
2.20133e+00 2.99361e+02 1.30831e+03 1.17374e-01
2.25271e+00 2.63884e+02 1.20140e+03 1.11395e-01
2.30529e+00 2.32829e+02 1.10351e+03 1.05588e-01
2.35910e+00 2.05639e+02 1.01377e+03 1.00007e-01
2.41416e+00 1.83575e+02 9.31477e+02 9.47015e-02
2.47050e+00 1.68737e+02 8.56195e+02 8.97111e-02
2.52817e+00 1.55235e+02 7.86710e+02 8.50002e-02
2.58717e+00 1.42925e+02 7.22476e+02 8.05658e-02
2.64756e+00 1.33261e+02 6.62445e+02 7.63851e-02
2.70935e+00 1.24734e+02 6.06816e+02 7.24563e-02
2.77259e+00 1.16820e+02 5.55432e+02 6.87677e-02
2.83730e+00 1.10401e+02 5.07884e+02 6.53019e-02
2.90353e+00 1.05049e+02 4.63969e+02 6.20429e-02
2.97130e+00 9.99977e+01 4.23537e+02 5.89763e-02
3.04065e+00 9.50769e+01 3.86044e+02 5.60764e-02
3.11162e+00 9.03305e+01 3.51438e+02 5.33349e-02
3.18424e+00 8.58505e+01 3.19741e+02 5.07482e-02
3.25856e+00 8.16190e+01 2.90742e+02 4.83049e-02
3.33462e+00 7.76197e+01 2.64242e+02 4.59946e-02
3.41245e+00 7.38377e+01 2.40052e+02 4.38079e-02
3.49210e+00 7.02594e+01 2.17992e+02 4.17363e-02
3.57360e+00 6.69546e+01 1.97960e+02 3.97754e-02
3.65701e+00 6.38298e+01 1.79724e+02 3.79150e-02
3.74237e+00 6.08656e+01 1.63126e+02 3.61483e-02
3.82971e+00 5.80526e+01 1.48030e+02 3.44695e-02
3.91910e+00 5.53821e+01 1.34308e+02 3.28736e-02
4.01057e+00 5.29032e+01 1.21817e+02 3.13541e-02
4.10418e+00 5.09710e+01 1.10314e+02 2.98988e-02
4.19997e+00 4.91198e+01 9.98896e+01 2.85138e-02
4.29800e+00 4.73456e+01 9.04443e+01 2.71954e-02
4.39832e+00 4.56444e+01 8.18887e+01 2.59398e-02
4.50098e+00 4.40211e+01 7.41365e+01 2.47436e-02
4.60603e+00 4.33304e+01 6.67547e+01 2.35761e-02
4.71353e+00 4.26588e+01 6.01075e+01 2.24649e-02
4.82355e+00 4.20053e+01 5.41224e+01 2.14072e-02
4.93613e+00 4.13691e+01 4.87335e+01 2.04002e-02
5.05134e+00 4.09392e+01 4.38449e+01 1.94378e-02
5.16924e+00 4.07581e+01 3.94052e+01 1.85173e-02
5.28989e+00 4.05840e+01 3.54153e+01 1.76409e-02
5.41336e+00 4.04164e+01 3.18294e+01 1.68064e-02
5.53971e+00 4.00353e+01 2.85528e+01 1.60056e-02
5.66901e+00 3.91866e+01 2.55059e+01 1.52302e-02
5.80132e+00 3.83605e+01 2.27823e+01 1.44929e-02
5.93673e+00 3.75558e+01 2.03479e+01 1.37916e-02
6.07529e+00 3.67945e+01 1.81315e+01 1.31190e-02
6.21709e+00 3.60706e+01 1.61234e+01 1.24750e-02
6.36220e+00 3.53637e+01 1.43350e+01 1.18630e-02
6.51069e+00 3.47468e+01 1.27298e+01 1.12793e-02
6.66265e+00 3.51016e+01 1.11528e+01 1.06997e-02
6.81816e+00 3.54597e+01 9.76486e+00 1.01506e-02
6.97730e+00 3.58207e+01 8.54375e+00 9.63042e-03
7.14015e+00 3.69774e+01 7.37012e+00 9.11818e-03
7.30680e+00 3.83018e+01 6.33437e+00 8.63139e-03
7.47735e+00 3.96673e+01 5.43537e+00 8.17177e-03
7.65187e+00 4.55119e+01 4.45030e+00 7.69099e-03
7.83047e+00 5.29922e+01 3.59682e+00 7.23532e-03
8.01323e+00 6.30514e+01 2.86931e+00 6.80548e-03
8.20026e+00 1.00244e+02 2.08861e+00 6.35273e-03
8.39166e+00 2.31297e+02 1.40720e+00 5.89864e-03
8.58752e+00 4.43672e+02 9.74023e-01 5.46162e-03
8.78795e+00 7.28267e+02 9.06436e-01 5.06067e-03
8.99307e+00 1.14946e+03 1.37195e+00 4.68135e-03
9.20297e+00 1.63050e+03 2.40805e+00 4.34614e-03
9.41777e+00 2.05470e+03 3.79237e+00 4.07052e-03
9.63758e+00 2.31626e+03 5.13265e+00 3.85974e-03
9.86252e+00 2.37612e+03 6.09153e+00 3.72337e-03
1.00927e+01 2.24957e+03 6.47029e+00 3.68217e-03
1.03283e+01 2.04318e+03 6.40293e+00 3.70203e-03
1.05693e+01 1.80822e+03 6.14657e+00 3.77659e-03
1.08160e+01 1.53718e+03 5.63574e+00 3.93188e-03
1.10685e+01 1.29474e+03 5.04054e+00 4.07798e-03
1.13268e+01 1.07231e+03 4.47746e+00 4.21157e-03
1.15912e+01 8.49504e+02 3.89937e+00 4.32107e-03
1.18617e+01 6.47089e+02 3.29267e+00 4.30175e-03
1.21386e+01 4.90475e+02 2.67446e+00 4.09001e-03
1.24219e+01 3.75440e+02 2.14393e+00 3.79820e-03
1.27118e+01 3.25901e+02 1.69167e+00 3.46474e-03
1.30085e+01 2.97389e+02 1.30786e+00 3.14962e-03
1.33122e+01 3.35165e+02 1.04263e+00 2.87907e-03
1.36229e+01 3.78918e+02 8.47848e-01 2.65140e-03
1.39408e+01 4.32026e+02 7.20190e-01 2.46381e-03
1.42662e+01 4.78736e+02 6.11400e-01 2.29109e-03
1.45992e+01 5.29728e+02 5.15084e-01 2.12423e-03
1.49399e+01 5.93150e+02 4.25867e-01 1.95535e-03
1.52886e+01 7.30499e+02 3.95270e-01 1.78770e-03
1.56455e+01 9.14214e+02 4.27411e-01 1.63204e-03
1.60106e+01 1.13735e+03 5.28374e-01 1.48576e-03
1.63843e+01 1.32139e+03 6.75577e-01 1.37239e-03
1.67668e+01 1.43750e+03 8.07860e-01 1.27689e-03
1.71581e+01 1.47802e+03 9.01504e-01 1.20022e-03
1.75586e+01 1.45167e+03 9.47160e-01 1.14289e-03
1.79684e+01 1.37432e+03 9.39832e-01 1.10704e-03
1.83878e+01 1.27326e+03 8.91588e-01 1.08935e-03
1.88169e+01 1.17965e+03 8.31840e-01 1.07472e-03
1.92561e+01 1.09261e+03 7.68779e-01 1.06305e-03
1.97056e+01 1.01464e+03 7.07507e-01 1.05137e-03
2.01655e+01 9.47419e+02 6.48312e-01 1.03728e-03
2.06362e+01 8.86568e+02 5.90954e-01 1.02323e-03
2.11178e+01 8.32628e+02 5.39813e-01 1.00672e-03
2.16107e+01 7.92124e+02 4.94747e-01 9.80583e-04
2.21151e+01 7.53799e+02 4.54451e-01 9.54812e-04
2.26313e+01 7.18412e+02 4.20266e-01 9.27872e-04
2.31595e+01 6.83871e+02 3.88949e-01 9.02474e-04
2.37001e+01 6.49483e+02 3.60731e-01 8.79089e-04
2.42532e+01 6.12133e+02 3.33437e-01 8.62288e-04
2.48193e+01 5.71705e+02 3.07180e-01 8.53061e-04
2.53986e+01 5.33438e+02 2.81699e-01 8.45722e-04
2.59914e+01 4.97355e+02 2.57945e-01 8.39432e-04
2.65980e+01 4.62907e+02 2.35639e-01 8.34770e-04
2.72188e+01 4.29372e+02 2.15065e-01 8.32438e-04
2.78541e+01 3.95872e+02 1.95907e-01 8.33869e-04
2.85043e+01 3.65995e+02 1.78440e-01 8.32580e-04
2.91696e+01 3.37966e+02 1.62260e-01 8.30876e-04
2.98504e+01 3.10391e+02 1.46718e-01 8.29953e-04
3.05471e+01 2.86913e+02 1.32353e-01 8.21879e-04
3.12601e+01 2.65371e+02 1.19492e-01 8.11067e-04
3.19897e+01 2.45067e+02 1.08097e-01 7.99373e-04
3.27363e+01 2.29095e+02 9.76357e-02 7.79290e-04
3.35004e+01 2.13984e+02 8.82941e-02 7.58926e-04
3.42823e+01 2.00549e+02 7.98684e-02 7.36422e-04
3.50825e+01 1.89287e+02 7.21900e-02 7.10537e-04
3.59013e+01 1.78546e+02 6.52960e-02 6.85196e-04
3.67392e+01 1.67587e+02 5.92584e-02 6.63090e-04
3.75967e+01 1.57124e+02 5.38375e-02 6.41778e-04
3.84743e+01 1.47831e+02 4.88148e-02 6.18507e-04
3.93723e+01 1.39500e+02 4.41835e-02 5.93867e-04
4.02912e+01 1.32129e+02 4.00450e-02 5.69697e-04
4.12316e+01 1.26256e+02 3.63695e-02 5.45759e-04
4.21940e+01 1.20628e+02 3.30377e-02 5.22764e-04
4.31788e+01 1.15234e+02 3.00167e-02 5.00680e-04
4.41866e+01 1.10066e+02 2.72769e-02 4.79478e-04
4.52179e+01 1.05209e+02 2.48001e-02 4.59187e-04
4.62733e+01 1.00890e+02 2.25810e-02 4.39943e-04
4.73534e+01 9.67425e+01 2.05626e-02 4.21484e-04
4.84586e+01 9.27595e+01 1.87265e-02 4.03779e-04
4.95896e+01 8.89351e+01 1.70560e-02 3.86799e-04
5.07471e+01 8.43641e+01 1.55276e-02 3.71143e-04
5.19315e+01 7.95440e+01 1.41357e-02 3.56410e-04
5.31436e+01 7.49851e+01 1.28722e-02 3.42214e-04
5.43840e+01 7.06749e+01 1.17247e-02 3.28542e-04
5.56533e+01 6.70032e+01 1.06781e-02 3.14931e-04
5.69523e+01 6.38816e+01 9.72284e-03 3.01456e-04
5.82815e+01 6.09009e+01 8.85403e-03 2.88541e-04
5.96418e+01 5.80553e+01 8.06372e-03 2.76164e-04
6.10339e+01 5.51042e+01 7.34018e-03 2.64269e-04
6.24584e+01 5.22203e+01 6.68107e-03 2.52856e-04
6.39162e+01 4.94825e+01 6.08201e-03 2.41919e-04
6.54081e+01 4.69917e+01 5.53760e-03 2.31388e-04
6.69347e+01 4.48995e+01 5.04283e-03 2.21175e-04
6.84970e+01 4.28986e+01 4.59258e-03 2.11406e-04
7.00957e+01 4.09858e+01 4.18273e-03 2.02059e-04
7.17318e+01 3.91659e+01 3.80887e-03 1.93065e-04
7.34060e+01 3.74254e+01 3.46863e-03 1.84466e-04
7.51193e+01 3.57620e+01 3.15896e-03 1.76245e-04
7.68726e+01 3.41862e+01 2.87715e-03 1.68385e-04
7.86668e+01 3.26788e+01 2.62061e-03 1.60871e-04
8.05029e+01 3.12316e+01 2.38704e-03 1.53690e-04
8.23819e+01 2.98339e+01 2.17434e-03 1.46827e-04
8.43047e+01 2.84979e+01 1.98069e-03 1.40268e-04
8.62724e+01 2.72210e+01 1.80436e-03 1.33999e-04
8.82860e+01 2.60006e+01 1.64380e-03 1.28008e-04
9.03466e+01 2.48342e+01 1.49758e-03 1.22283e-04
9.24553e+01 2.37196e+01 1.36443e-03 1.16811e-04
9.46132e+01 2.26546e+01 1.24316e-03 1.11582e-04
9.68215e+01 2.16368e+01 1.13270e-03 1.06586e-04
9.90814e+01 2.06644e+01 1.03210e-03 1.01812e-04
1.01394e+02 1.97385e+01 9.40465e-04 9.72500e-05
1.03760e+02 1.88559e+01 8.56995e-04 9.28910e-05
1.06182e+02 1.80124e+01 7.80956e-04 8.87263e-05
1.08661e+02 1.72063e+01 7.11683e-04 8.47472e-05
1.11197e+02 1.64361e+01 6.48572e-04 8.09456e-05
1.13792e+02 1.57000e+01 5.91073e-04 7.73136e-05
1.16448e+02 1.49968e+01 5.38684e-04 7.38439e-05
1.19166e+02 1.43248e+01 4.90950e-04 7.05291e-05
1.21947e+02 1.36827e+01 4.47455e-04 6.73624e-05
1.24794e+02 1.30693e+01 4.07823e-04 6.43374e-05
1.27706e+02 1.24832e+01 3.71708e-04 6.14476e-05
1.30687e+02 1.19232e+01 3.38799e-04 5.86872e-05
1.33737e+02 1.13883e+01 3.08808e-04 5.60502e-05
1.36859e+02 1.08772e+01 2.81477e-04 5.35314e-05
1.40053e+02 1.03889e+01 2.56570e-04 5.11254e-05
1.43322e+02 9.92251e+00 2.33870e-04 4.88271e-05
1.46667e+02 9.47693e+00 2.13182e-04 4.66319e-05
1.50090e+02 9.05128e+00 1.94327e-04 4.45350e-05
1.53593e+02 8.64467e+00 1.77142e-04 4.25322e-05
1.57178e+02 8.25626e+00 1.61479e-04 4.06193e-05
1.60847e+02 7.88524e+00 1.47202e-04 3.87921e-05
1.64601e+02 7.53084e+00 1.34190e-04 3.70469e-05
1.68443e+02 7.19231e+00 1.22329e-04 3.53801e-05
1.72374e+02 6.86896e+00 1.11518e-04 3.37881e-05
1.76398e+02 6.56010e+00 1.01664e-04 3.22676e-05
1.80515e+02 6.26509e+00 9.26809e-05 3.08153e-05
1.84728e+02 5.98331e+00 8.44926e-05 2.94283e-05
1.89040e+02 5.71417e+00 7.70285e-05 2.81037e-05
1.93452e+02 5.45711e+00 7.02244e-05 2.68385e-05
1.97967e+02 5.21159e+00 6.40219e-05 2.56302e-05
2.02588e+02 4.97709e+00 5.83677e-05 2.44762e-05
2.07316e+02 4.75312e+00 5.32132e-05 2.33741e-05
2.12155e+02 4.53920e+00 4.85144e-05 2.23216e-05
2.17107e+02 4.33490e+00 4.42307e-05 2.13163e-05
2.22174e+02 4.13977e+00 4.03256e-05 2.03563e-05
2.27360e+02 3.95341e+00 3.67655e-05 1.94395e-05
2.32666e+02 3.77543e+00 3.35199e-05 1.85639e-05
2.38097e+02 3.60544e+00 3.05610e-05 1.77277e-05
2.43654e+02 3.44310e+00 2.78634e-05 1.69291e-05
2.49341e+02 3.28806e+00 2.54041e-05 1.61665e-05
2.55161e+02 3.13999e+00 2.31620e-05 1.54382e-05
2.61116e+02 2.99858e+00 2.11179e-05 1.47427e-05
2.67211e+02 2.86353e+00 1.92542e-05 1.40784e-05
2.73447e+02 2.73455e+00 1.75551e-05 1.34441e-05
2.79830e+02 2.61138e+00 1.60060e-05 1.28383e-05
2.86361e+02 2.49374e+00 1.45937e-05 1.22598e-05
2.93045e+02 2.38141e+00 1.33060e-05 1.17074e-05
2.99884e+02 2.27412e+00 1.21320e-05 1.11798e-05
3.06884e+02 2.17167e+00 1.10617e-05 1.06760e-05
3.14047e+02 2.07383e+00 1.00858e-05 1.01949e-05
3.21376e+02 1.98039e+00 9.19599e-06 9.73542e-06
3.28877e+02 1.89116e+00 8.38473e-06 9.29666e-06
3.36553e+02 1.80594e+00 7.64507e-06 8.87766e-06
3.44409e+02 1.72456e+00 6.97068e-06 8.47754e-06
3.52447e+02 1.64685e+00 6.35579e-06 8.09544e-06
3.60673e+02 1.57264e+00 5.79516e-06 7.73055e-06
3.69092e+02 1.50176e+00 5.28399e-06 7.38211e-06
3.77706e+02 1.43408e+00 4.81792e-06 7.04935e-06
3.86522e+02 1.36945e+00 4.39298e-06 6.73159e-06
3.95544e+02 1.30773e+00 4.00552e-06 6.42816e-06
4.04776e+02 1.24879e+00 3.65224e-06 6.13839e-06
4.14223e+02 1.19251e+00 3.33013e-06 5.86168e-06
4.23891e+02 1.13876e+00 3.03643e-06 5.59744e-06
4.33785e+02 1.08743e+00 2.76864e-06 5.34510e-06
4.43910e+02 1.03841e+00 2.52447e-06 5.10415e-06
4.54271e+02 9.91606e-01 2.30184e-06 4.87404e-06
4.64873e+02 9.46907e-01 2.09885e-06 4.65431e-06
4.75724e+02 9.04223e-01 1.91376e-06 4.44448e-06
4.86827e+02 8.63462e-01 1.74499e-06 4.24411e-06
4.98190e+02 8.24538e-01 1.59111e-06 4.05277e-06
5.09818e+02 7.87368e-01 1.45080e-06 3.87005e-06
5.21717e+02 7.51873e-01 1.32287e-06 3.69557e-06
5.33894e+02 7.17978e-01 1.20622e-06 3.52895e-06
5.46355e+02 6.85610e-01 1.09985e-06 3.36985e-06
5.59107e+02 6.54701e-01 1.00287e-06 3.21791e-06
5.72157e+02 6.25185e-01 9.14439e-07 3.07283e-06
5.85511e+02 5.96999e-01 8.33807e-07 2.93429e-06
5.99177e+02 5.70084e-01 7.60285e-07 2.80199e-06
6.13162e+02 5.44382e-01 6.93247e-07 2.67565e-06
6.27473e+02 5.19838e-01 6.32121e-07 2.55501e-06
6.42119e+02 4.96401e-01 5.76384e-07 2.43981e-06
6.57106e+02 4.74020e-01 5.25563e-07 2.32980e-06
6.72443e+02 4.52648e-01 4.79223e-07 2.22475e-06
6.88138e+02 4.32240e-01 4.36969e-07 2.12444e-06
7.04199e+02 4.12751e-01 3.98441e-07 2.02865e-06
7.20635e+02 3.94141e-01 3.63311e-07 1.93718e-06
7.37455e+02 3.76370e-01 3.31278e-07 1.84983e-06
7.54667e+02 3.59400e-01 3.02069e-07 1.76642e-06
7.72281e+02 3.43195e-01 2.75436e-07 1.68677e-06
7.90307e+02 3.27721e-01 2.51152e-07 1.61071e-06
8.08753e+02 3.12944e-01 2.29008e-07 1.53809e-06
8.27629e+02 2.98834e-01 2.08817e-07 1.46873e-06
8.46946e+02 2.85360e-01 1.90407e-07 1.40250e-06
8.66714e+02 2.72493e-01 1.73619e-07 1.33926e-06
8.86943e+02 2.60206e-01 1.58312e-07 1.27887e-06
9.07645e+02 2.48473e-01 1.44354e-07 1.22121e-06
9.28829e+02 2.37269e-01 1.31627e-07 1.16614e-06
9.50508e+02 2.26570e-01 1.20022e-07 1.11355e-06
9.72693e+02 2.16354e-01 1.09441e-07 1.06334e-06
9.95396e+02 2.06598e-01 9.97919e-08 1.01539e-06
1.01863e+03 1.97283e-01 9.09938e-08 9.69606e-07
1.04240e+03 1.88387e-01 8.29715e-08 9.25884e-07
1.06673e+03 1.79892e-01 7.56564e-08 8.84133e-07
1.09163e+03 1.71780e-01 6.89863e-08 8.44264e-07
1.11711e+03 1.64034e-01 6.29043e-08 8.06194e-07
1.14318e+03 1.56638e-01 5.73585e-08 7.69840e-07
1.16987e+03 1.49574e-01 5.23017e-08 7.35126e-07
1.19717e+03 1.42830e-01 4.76906e-08 7.01976e-07
1.22511e+03 1.36389e-01 4.34861e-08 6.70321e-07
1.25371e+03 1.30239e-01 3.96523e-08 6.40094e-07
1.28297e+03 1.24366e-01 3.61565e-08 6.11230e-07
1.31291e+03 1.18758e-01 3.29689e-08 5.83667e-07
1.34356e+03 1.13403e-01 3.00623e-08 5.57347e-07
1.37492e+03 1.08289e-01 2.74120e-08 5.32214e-07
1.40701e+03 1.03406e-01 2.49954e-08 5.08215e-07
1.43985e+03 9.87430e-02 2.27917e-08 4.85297e-07
1.47345e+03 9.42903e-02 2.07824e-08 4.63413e-07
1.50785e+03 9.00384e-02 1.89502e-08 4.42516e-07
1.54304e+03 8.59782e-02 1.72796e-08 4.22560e-07
1.57905e+03 8.21011e-02 1.57562e-08 4.03506e-07
1.61591e+03 7.83989e-02 1.43671e-08 3.85310e-07
1.65362e+03 7.48635e-02 1.31005e-08 3.67935e-07
1.69222e+03 7.14876e-02 1.19456e-08 3.51343e-07
1.73172e+03 6.82640e-02 1.08925e-08 3.35499e-07
1.77214e+03 6.51856e-02 9.93219e-09 3.20370e-07
1.81350e+03 6.22462e-02 9.05658e-09 3.05923e-07
1.85583e+03 5.94392e-02 8.25815e-09 2.92127e-07
1.89914e+03 5.67588e-02 7.53012e-09 2.78954e-07
1.94347e+03 5.41993e-02 6.86627e-09 2.66375e-07
1.98883e+03 5.17552e-02 6.26095e-09 2.54362e-07
2.03525e+03 4.94213e-02 5.70899e-09 2.42892e-07
2.08275e+03 4.71927e-02 5.20569e-09 2.31939e-07
2.13136e+03 4.50646e-02 4.74676e-09 2.21480e-07
2.18111e+03 4.30324e-02 4.32829e-09 2.11492e-07
2.23202e+03 4.10919e-02 3.94672e-09 2.01955e-07
2.28411e+03 3.92388e-02 3.59878e-09 1.92848e-07
2.33742e+03 3.74694e-02 3.28151e-09 1.84151e-07
2.39198e+03 3.57797e-02 2.99222e-09 1.75847e-07
2.44781e+03 3.41662e-02 2.72843e-09 1.67917e-07
2.50494e+03 3.26255e-02 2.48790e-09 1.60345e-07
2.56341e+03 3.11542e-02 2.26857e-09 1.53114e-07
2.62324e+03 2.97493e-02 2.06857e-09 1.46209e-07
2.68446e+03 2.84078e-02 1.88621e-09 1.39616e-07
2.74712e+03 2.71268e-02 1.71993e-09 1.33320e-07
2.81124e+03 2.59035e-02 1.56830e-09 1.27308e-07
2.87685e+03 2.47354e-02 1.43004e-09 1.21567e-07
2.94400e+03 2.36199e-02 1.30397e-09 1.16085e-07
3.01271e+03 2.25548e-02 1.18902e-09 1.10850e-07
3.08303e+03 2.15377e-02 1.08419e-09 1.05851e-07
3.15499e+03 2.05664e-02 9.88614e-10 1.01078e-07
3.22863e+03 1.96390e-02 9.01460e-10 9.65196e-08
3.30399e+03 1.87533e-02 8.21989e-10 9.21671e-08
3.38110e+03 1.79077e-02 7.49524e-10 8.80107e-08
3.46002e+03 1.71001e-02 6.83447e-10 8.40419e-08
3.54077e+03 1.63290e-02 6.23196e-10 8.02520e-08
3.62342e+03 1.55926e-02 5.68256e-10 7.66330e-08
3.70799e+03 1.48895e-02 5.18160e-10 7.31772e-08
3.79453e+03 1.42180e-02 4.72480e-10 6.98772e-08
3.88310e+03 1.35769e-02 4.30827e-10 6.67261e-08
3.97373e+03 1.29646e-02 3.92846e-10 6.37171e-08
4.06648e+03 1.23800e-02 3.58214e-10 6.08437e-08
4.16139e+03 1.18217e-02 3.26634e-10 5.81000e-08
4.25852e+03 1.12886e-02 2.97839e-10 5.54799e-08
4.35791e+03 1.07795e-02 2.71582e-10 5.29780e-08
4.45963e+03 1.02934e-02 2.47640e-10 5.05889e-08
4.56372e+03 9.82923e-03 2.25809e-10 4.83076e-08
4.67023e+03 9.38597e-03 2.05902e-10 4.61292e-08
4.77924e+03 8.96271e-03 1.87750e-10 4.40490e-08
4.89079e+03 8.55853e-03 1.71198e-10 4.20626e-08
5.00494e+03 8.17258e-03 1.56106e-10 4.01658e-08
5.12176e+03 7.80404e-03 1.42344e-10 3.83544e-08
5.24130e+03 7.45211e-03 1.29795e-10 3.66248e-08
5.36363e+03 7.11605e-03 1.18353e-10 3.49732e-08
5.48882e+03 6.79515e-03 1.07919e-10 3.33961e-08
5.61693e+03 6.48872e-03 9.84052e-11 3.18901e-08
5.74803e+03 6.19611e-03 8.97300e-11 3.04520e-08
5.88219e+03 5.91670e-03 8.18197e-11 2.90788e-08
6.01948e+03 5.64988e-03 7.46066e-11 2.77674e-08
6.15998e+03 5.39510e-03 6.80295e-11 2.65152e-08
6.30375e+03 5.15180e-03 6.20322e-11 2.53195e-08
6.45088e+03 4.91948e-03 5.65636e-11 2.41777e-08
6.60145e+03 4.69763e-03 5.15770e-11 2.30874e-08
6.75553e+03 4.48579e-03 4.70301e-11 2.20463e-08
6.91320e+03 4.28350e-03 4.28841e-11 2.10521e-08
7.07456e+03 4.09034e-03 3.91035e-11 2.01027e-08
7.23968e+03 3.90588e-03 3.56562e-11 1.91962e-08
7.40866e+03 3.72974e-03 3.25129e-11 1.83305e-08
7.58158e+03 3.56155e-03 2.96466e-11 1.75039e-08
7.75853e+03 3.40094e-03 2.70330e-11 1.67146e-08
7.93962e+03 3.24757e-03 2.46499e-11 1.59608e-08
8.12493e+03 3.10112e-03 2.24768e-11 1.52410e-08
8.31457e+03 2.96127e-03 2.04953e-11 1.45537e-08
8.50863e+03 2.82773e-03 1.86885e-11 1.38974e-08
8.70722e+03 2.70022e-03 1.70410e-11 1.32707e-08
8.91045e+03 2.57845e-03 1.55387e-11 1.26723e-08
9.11843e+03 2.46217e-03 1.41688e-11 1.21008e-08
9.33125e+03 2.35114e-03 1.29197e-11 1.15551e-08
9.54904e+03 2.24511e-03 1.17808e-11 1.10340e-08
9.77192e+03 2.14387e-03 1.07422e-11 1.05364e-08
1.00000e+04 2.04719e-03 9.79519e-12 1.00613e-08
